solid Needle_receptor_6mm_x5
facet normal 0 -1 0 
outer loop
vertex -0.324127 -34.9999 5.98315 
vertex 5.67587 -34.9999 -0.0168514 
vertex 6.32413 -34.9999 6.15096 
endloop
endfacet
facet normal 0 -1 0 
outer loop
vertex -0.324127 -34.9999 5.98315 
vertex 6.32413 -34.9999 6.15096 
vertex -0.389946 -34.9999 6.15096 
endloop
endfacet
facet normal 0 -1 0 
outer loop
vertex -0.324127 -34.9999 5.98315 
vertex -0.389946 -34.9999 6.15096 
vertex -0.389946 -34.9999 5.96551 
endloop
endfacet
facet normal 0 -1 0 
outer loop
vertex -0.324127 -34.9999 5.98315 
vertex -0.389946 -34.9999 5.96551 
vertex -0.389946 -34.9999 -5.99921 
endloop
endfacet
facet normal 0 -1 0 
outer loop
vertex 6.32413 -34.9999 6.15096 
vertex 5.67587 -34.9999 -0.0168514 
vertex 6.32413 -34.9999 -6.15096 
endloop
endfacet
facet normal 3.51024e-005 -1 0 
outer loop
vertex -0.389946 -34.9999 -5.99921 
vertex -0.389946 -34.9999 5.96551 
vertex -3.32413 -35 5.1793 
endloop
endfacet
facet normal -0.00152374 -0.999999 8.26517e-006 
outer loop
vertex -0.324127 -35 -6.01685 
vertex -0.324127 -34.9999 5.98315 
vertex -0.389946 -34.9999 -6.15096 
endloop
endfacet
facet normal 0 -1 0 
outer loop
vertex -0.324127 -34.9999 5.98315 
vertex -0.389946 -34.9999 -5.99921 
vertex -0.389946 -34.9999 -6.15096 
endloop
endfacet
facet normal 0.000228165 -1 -0.000851525 
outer loop
vertex -0.324127 -35 -6.01685 
vertex -0.389946 -34.9999 -6.15096 
vertex 2.67587 -35 -5.213 
endloop
endfacet
facet normal -2.21465e-006 -1 8.26518e-006 
outer loop
vertex -0.324127 -34.9999 5.98315 
vertex -0.324127 -35 -6.01685 
vertex 2.67587 -35 -5.213 
endloop
endfacet
facet normal -6.98655e-006 -1 6.98655e-006 
outer loop
vertex -0.324127 -34.9999 5.98315 
vertex 2.67587 -35 -5.213 
vertex 4.87203 -35 -3.01685 
endloop
endfacet
facet normal 2.16262e-005 -1 -2.16262e-005 
outer loop
vertex 2.67587 -35 -5.213 
vertex 6.32413 -34.9999 -6.15096 
vertex 4.87203 -35 -3.01685 
endloop
endfacet
facet normal 2.60742e-005 -1 2.60742e-005 
outer loop
vertex -0.324127 -34.9999 5.98315 
vertex 4.87203 -35 -3.01685 
vertex 5.67587 -34.9999 -0.0168514 
endloop
endfacet
facet normal 8.84855e-005 -1 9.35114e-006 
outer loop
vertex 5.67587 -34.9999 -0.0168514 
vertex 4.87203 -35 -3.01685 
vertex 6.32413 -34.9999 -6.15096 
endloop
endfacet
facet normal 0 -1 -0.000105743 
outer loop
vertex 6.32413 -34.9999 -6.15096 
vertex 2.67587 -35 -5.213 
vertex -0.389946 -34.9999 -6.15096 
endloop
endfacet
facet normal 0 0 -1 
outer loop
vertex 6.32413 35 -6.15096 
vertex 6.32413 -34.9999 -6.15096 
vertex -0.389946 35 -6.15096 
endloop
endfacet
facet normal 0 0 -1 
outer loop
vertex 6.32413 -34.9999 -6.15096 
vertex -0.389946 -34.9999 -6.15096 
vertex -0.389946 35 -6.15096 
endloop
endfacet
facet normal 1 0 0 
outer loop
vertex 6.32413 -34.9999 -6.15096 
vertex 6.32413 35 -6.15096 
vertex 6.32413 -34.9999 6.15096 
endloop
endfacet
facet normal 1 -0 0 
outer loop
vertex 6.32413 35 -6.15096 
vertex 6.32413 35 6.15096 
vertex 6.32413 -34.9999 6.15096 
endloop
endfacet
facet normal 0 0 1 
outer loop
vertex 6.32413 -34.9999 6.15096 
vertex 6.32413 35 6.15096 
vertex -0.389946 -34.9999 6.15096 
endloop
endfacet
facet normal 0 0 1 
outer loop
vertex 6.32413 35 6.15096 
vertex -0.389946 35 6.15096 
vertex -0.389946 -34.9999 6.15096 
endloop
endfacet
facet normal -1 0 0 
outer loop
vertex -0.389946 35 -5.99921 
vertex -0.389946 35 -6.15096 
vertex -0.389946 -34.9999 -5.99921 
endloop
endfacet
facet normal -1 0 0 
outer loop
vertex -0.389946 35 -6.15096 
vertex -0.389946 -34.9999 -6.15096 
vertex -0.389946 -34.9999 -5.99921 
endloop
endfacet
facet normal -1 0 0 
outer loop
vertex -0.389946 -34.9999 5.96551 
vertex -0.389946 -34.9999 6.15096 
vertex -0.389946 35 5.96551 
endloop
endfacet
facet normal -1 0 0 
outer loop
vertex -0.389946 -34.9999 6.15096 
vertex -0.389946 35 6.15096 
vertex -0.389946 35 5.96551 
endloop
endfacet
facet normal -0.258819 1.31597e-008 -0.965926 
outer loop
vertex -3.32413 35 -5.213 
vertex -0.389946 35 -5.99921 
vertex -3.32413 -35 -5.213 
endloop
endfacet
facet normal -0.258819 6.57985e-009 -0.965926 
outer loop
vertex -0.389946 35 -5.99921 
vertex -0.389946 -34.9999 -5.99921 
vertex -3.32413 -35 -5.213 
endloop
endfacet
facet normal 4.61748e-005 -1 4.61748e-005 
outer loop
vertex -0.389946 -34.9999 -5.99921 
vertex -5.52028 -35 -3.01685 
vertex -3.32413 -35 -5.213 
endloop
endfacet
facet normal -0.258819 0 0.965926 
outer loop
vertex -3.32413 -35 5.1793 
vertex -0.389946 -34.9999 5.96551 
vertex -0.389946 35 5.96551 
endloop
endfacet
facet normal -0.258819 -2.63194e-008 0.965926 
outer loop
vertex -3.32413 -35 5.1793 
vertex -0.389946 35 5.96551 
vertex -3.32413 35 5.1793 
endloop
endfacet
facet normal -3.9071e-005 1 3.9071e-005 
outer loop
vertex -5.52028 35 2.98315 
vertex -3.32413 35 5.1793 
vertex -0.389946 35 5.96551 
endloop
endfacet
facet normal -0.707107 -1.92671e-008 0.707107 
outer loop
vertex -3.32413 -35 5.1793 
vertex -3.32413 35 5.1793 
vertex -5.52028 -35 2.98315 
endloop
endfacet
facet normal -0.707107 -1.92671e-008 0.707107 
outer loop
vertex -3.32413 35 5.1793 
vertex -5.52028 35 2.98315 
vertex -5.52028 -35 2.98315 
endloop
endfacet
facet normal -0.965926 -7.05226e-009 0.258819 
outer loop
vertex -5.52028 -35 2.98315 
vertex -5.52028 35 2.98315 
vertex -6.32413 -35 -0.0168514 
endloop
endfacet
facet normal -0.965926 0 0.258819 
outer loop
vertex -5.52028 35 2.98315 
vertex -6.32413 35 -0.0168514 
vertex -6.32413 -35 -0.0168514 
endloop
endfacet
facet normal 5.92232e-006 -1 -7.65931e-006 
outer loop
vertex -0.389946 -34.9999 -5.99921 
vertex -3.32413 -35 5.1793 
vertex -5.52028 -35 2.98315 
endloop
endfacet
facet normal 1.31591e-005 -1 -3.52597e-006 
outer loop
vertex -0.389946 -34.9999 -5.99921 
vertex -5.52028 -35 2.98315 
vertex -6.32413 -35 -0.0168514 
endloop
endfacet
facet normal -0.965926 0 -0.258819 
outer loop
vertex -6.32413 -35 -0.0168514 
vertex -6.32413 35 -0.0168514 
vertex -5.52028 -35 -3.01685 
endloop
endfacet
facet normal -0.965926 3.52613e-009 -0.258819 
outer loop
vertex -6.32413 35 -0.0168514 
vertex -5.52028 35 -3.01685 
vertex -5.52028 -35 -3.01685 
endloop
endfacet
facet normal -0.707107 9.63357e-009 -0.707107 
outer loop
vertex -3.32413 35 -5.213 
vertex -3.32413 -35 -5.213 
vertex -5.52028 35 -3.01685 
endloop
endfacet
facet normal -0.707107 9.63357e-009 -0.707107 
outer loop
vertex -3.32413 -35 -5.213 
vertex -5.52028 -35 -3.01685 
vertex -5.52028 35 -3.01685 
endloop
endfacet
facet normal 2.28994e-005 -1 6.13588e-006 
outer loop
vertex -0.389946 -34.9999 -5.99921 
vertex -6.32413 -35 -0.0168514 
vertex -5.52028 -35 -3.01685 
endloop
endfacet
facet normal -3.13356e-005 1 3.87955e-006 
outer loop
vertex -0.74343 35 -3.0508 
vertex -0.389946 35 -3.14551 
vertex -3.32413 35 -5.213 
endloop
endfacet
facet normal -2.8602e-005 1 0 
outer loop
vertex -0.389946 35 -3.14551 
vertex -0.389946 35 -5.99921 
vertex -3.32413 35 -5.213 
endloop
endfacet
facet normal -6.5217e-006 1 0 
outer loop
vertex 6.32413 35 6.15096 
vertex 6.32413 35 -6.15096 
vertex 2.81458 35 -1.625 
endloop
endfacet
facet normal -3.24973e-006 1 -1.47675e-006 
outer loop
vertex 6.32413 35 6.15096 
vertex 2.81458 35 -1.625 
vertex 3.25 35 -2.38868e-008 
endloop
endfacet
facet normal -7.09678e-006 1 4.4593e-007 
outer loop
vertex 6.32413 35 6.15096 
vertex 3.25 35 -2.38868e-008 
vertex 2.81458 35 1.625 
endloop
endfacet
facet normal -4.65457e-006 1 -1.44782e-006 
outer loop
vertex 6.32413 35 6.15096 
vertex 2.81458 35 1.625 
vertex 1.625 35 2.81458 
endloop
endfacet
facet normal -4.96558e-006 1 -1.00978e-006 
outer loop
vertex 6.32413 35 6.15096 
vertex 1.625 35 2.81458 
vertex -1.32128e-007 35 3.25 
endloop
endfacet
facet normal 3.4783e-007 1 -1.25931e-005 
outer loop
vertex 6.32413 35 6.15096 
vertex -1.32128e-007 35 3.25 
vertex -0.389946 35 5.96551 
endloop
endfacet
facet normal -0 1 0 
outer loop
vertex 6.32413 35 6.15096 
vertex -0.389946 35 5.96551 
vertex -0.389946 35 6.15096 
endloop
endfacet
facet normal 9.78263e-005 1 0 
outer loop
vertex -0.389946 35 -5.99921 
vertex -0.389946 35 -3.14551 
vertex 2.88218e-008 35 -3.25 
endloop
endfacet
facet normal -2.82673e-005 1 1.7885e-005 
outer loop
vertex -0.389946 35 -5.99921 
vertex 2.88218e-008 35 -3.25 
vertex 1.625 35 -2.81458 
endloop
endfacet
facet normal 5.23849e-005 1 -3.31444e-005 
outer loop
vertex -0.389946 35 -5.99921 
vertex 1.625 35 -2.81458 
vertex 2.81458 35 -1.625 
endloop
endfacet
facet normal 1.16337e-007 1 5.1473e-006 
outer loop
vertex -0.389946 35 -5.99921 
vertex 2.81458 35 -1.625 
vertex 6.32413 35 -6.15096 
endloop
endfacet
facet normal 0 1 0 
outer loop
vertex -0.389946 35 -5.99921 
vertex 6.32413 35 -6.15096 
vertex -0.389946 35 -6.15096 
endloop
endfacet
facet normal -8.31456e-006 1 -1.3837e-005 
outer loop
vertex -5.52028 35 2.98315 
vertex -0.389946 35 5.96551 
vertex -1.32128e-007 35 3.25 
endloop
endfacet
facet normal -9.92739e-006 1 1.95275e-005 
outer loop
vertex -5.52028 35 2.98315 
vertex -1.32128e-007 35 3.25 
vertex -1.625 35 2.81458 
endloop
endfacet
facet normal -1.05916e-005 1 4.17813e-006 
outer loop
vertex -5.52028 35 2.98315 
vertex -1.625 35 2.81458 
vertex -2.81458 35 1.625 
endloop
endfacet
facet normal -1.22232e-005 1 9.27696e-007 
outer loop
vertex -5.52028 35 2.98315 
vertex -2.81458 35 1.625 
vertex -3.25 35 -3.0668e-007 
endloop
endfacet
facet normal -9.94183e-006 1 2.66391e-006 
outer loop
vertex -5.52028 35 2.98315 
vertex -3.25 35 -3.0668e-007 
vertex -6.32413 35 -0.0168514 
endloop
endfacet
facet normal -9.91267e-006 1 -2.65609e-006 
outer loop
vertex -3.25 35 -3.0668e-007 
vertex -2.81458 35 -1.625 
vertex -6.32413 35 -0.0168514 
endloop
endfacet
facet normal -1.06257e-005 1 -4.21222e-006 
outer loop
vertex -1.625 35 -2.81458 
vertex -6.32413 35 -0.0168514 
vertex -2.81458 35 -1.625 
endloop
endfacet
facet normal -9.65874e-006 1 -2.58805e-006 
outer loop
vertex -6.32413 35 -0.0168514 
vertex -1.625 35 -2.81458 
vertex -5.52028 35 -3.01685 
endloop
endfacet
facet normal -1.45254e-005 1 9.11334e-005 
outer loop
vertex -0.74343 35 -3.0508 
vertex -5.52028 35 -3.01685 
vertex -1.625 35 -2.81458 
endloop
endfacet
facet normal -1.52816e-005 1 -1.52816e-005 
outer loop
vertex -5.52028 35 -3.01685 
vertex -0.74343 35 -3.0508 
vertex -3.32413 35 -5.213 
endloop
endfacet
facet normal 0.258739 0.0246852 0.965632 
outer loop
vertex -0.389946 35 -3.14551 
vertex -0.74343 35 -3.0508 
vertex -1.625 35 -2.81458 
endloop
endfacet
facet normal 0.258819 -8.24317e-009 0.965926 
outer loop
vertex -0.389946 35 -3.14551 
vertex -1.625 35 -2.81458 
vertex -1.625 -20.8753 -2.81458 
endloop
endfacet
facet normal 0.258819 -5.21149e-009 0.965926 
outer loop
vertex -0.389946 35 -3.14551 
vertex -1.625 -20.8753 -2.81458 
vertex 3.87559e-008 -20.8753 -3.25 
endloop
endfacet
facet normal 0.258819 -8.19715e-009 0.965926 
outer loop
vertex -0.389946 35 -3.14551 
vertex 3.87559e-008 -20.8753 -3.25 
vertex 2.88218e-008 35 -3.25 
endloop
endfacet
facet normal 0.707107 -6.03442e-009 0.707107 
outer loop
vertex -1.625 35 -2.81458 
vertex -2.81458 35 -1.625 
vertex -1.625 -20.8753 -2.81458 
endloop
endfacet
facet normal 0.707107 -4.52581e-009 0.707107 
outer loop
vertex -2.81458 35 -1.625 
vertex -2.81458 -20.8753 -1.625 
vertex -1.625 -20.8753 -2.81458 
endloop
endfacet
facet normal 0.965926 -1.65656e-009 0.258819 
outer loop
vertex -2.81458 35 -1.625 
vertex -3.25 35 -3.0668e-007 
vertex -2.81458 -20.8753 -1.625 
endloop
endfacet
facet normal 0.965926 -1.10438e-009 0.258819 
outer loop
vertex -3.25 35 -3.0668e-007 
vertex -3.25 -20.8753 -6.14789e-007 
vertex -2.81458 -20.8753 -1.625 
endloop
endfacet
facet normal 0.965926 1.42719e-009 -0.258819 
outer loop
vertex -3.25 35 -3.0668e-007 
vertex -2.81458 35 1.625 
vertex -3.25 -20.8753 -6.14789e-007 
endloop
endfacet
facet normal 0.965926 1.65656e-009 -0.258819 
outer loop
vertex -2.81458 35 1.625 
vertex -2.81458 -20.8753 1.625 
vertex -3.25 -20.8753 -6.14789e-007 
endloop
endfacet
facet normal 0.707107 3.01721e-009 -0.707107 
outer loop
vertex -2.81458 35 1.625 
vertex -1.625 35 2.81458 
vertex -1.625 -20.8753 2.81458 
endloop
endfacet
facet normal 0.707107 4.52581e-009 -0.707107 
outer loop
vertex -2.81458 35 1.625 
vertex -1.625 -20.8753 2.81458 
vertex -2.81458 -20.8753 1.625 
endloop
endfacet
facet normal 0.258819 4.12158e-009 -0.965926 
outer loop
vertex -1.625 35 2.81458 
vertex -1.32128e-007 35 3.25 
vertex -1.625 -20.8753 2.81458 
endloop
endfacet
facet normal 0.258819 4.12158e-009 -0.965926 
outer loop
vertex -1.32128e-007 35 3.25 
vertex -1.42062e-007 -20.8753 3.25 
vertex -1.625 -20.8753 2.81458 
endloop
endfacet
facet normal -0.258819 4.1676e-009 -0.965926 
outer loop
vertex -1.32128e-007 35 3.25 
vertex 1.625 35 2.81458 
vertex -1.42062e-007 -20.8753 3.25 
endloop
endfacet
facet normal -0.258819 4.12158e-009 -0.965926 
outer loop
vertex 1.625 35 2.81458 
vertex 1.625 -20.8753 2.81458 
vertex -1.42062e-007 -20.8753 3.25 
endloop
endfacet
facet normal -0.707107 3.01721e-009 -0.707107 
outer loop
vertex 1.625 35 2.81458 
vertex 2.81458 35 1.625 
vertex 1.625 -20.8753 2.81458 
endloop
endfacet
facet normal -0.707107 3.01721e-009 -0.707107 
outer loop
vertex 2.81458 35 1.625 
vertex 2.81458 -20.8753 1.625 
vertex 1.625 -20.8753 2.81458 
endloop
endfacet
facet normal -0.965926 1.10437e-009 -0.258819 
outer loop
vertex 2.81458 35 1.625 
vertex 3.25 35 -2.38868e-008 
vertex 2.81458 -20.8753 1.625 
endloop
endfacet
facet normal -0.965926 1.65656e-009 -0.258819 
outer loop
vertex 3.25 35 -2.38868e-008 
vertex 3.25 -20.8753 -3.30665e-007 
vertex 2.81458 -20.8753 1.625 
endloop
endfacet
facet normal -0.965926 -1.42102e-009 0.258819 
outer loop
vertex 3.25 35 -2.38868e-008 
vertex 2.81458 35 -1.625 
vertex 3.25 -20.8753 -3.30665e-007 
endloop
endfacet
facet normal -0.965926 -1.65656e-009 0.258819 
outer loop
vertex 2.81458 35 -1.625 
vertex 2.81458 -20.8753 -1.625 
vertex 3.25 -20.8753 -3.30665e-007 
endloop
endfacet
facet normal -0.707107 -6.03441e-009 0.707107 
outer loop
vertex 2.81458 35 -1.625 
vertex 1.625 35 -2.81458 
vertex 1.625 -20.8753 -2.81458 
endloop
endfacet
facet normal -0.707107 -4.52581e-009 0.707107 
outer loop
vertex 2.81458 35 -1.625 
vertex 1.625 -20.8753 -2.81458 
vertex 2.81458 -20.8753 -1.625 
endloop
endfacet
facet normal -0.703429 0.101857 0.703429 
outer loop
vertex 1.09499 -30.8753 -1.89658 
vertex 1.89658 -30.8753 -1.09499 
vertex 1.625 -20.8753 -2.81458 
endloop
endfacet
facet normal -0.703429 0.101857 0.703429 
outer loop
vertex 1.89658 -30.8753 -1.09499 
vertex 2.81458 -20.8753 -1.625 
vertex 1.625 -20.8753 -2.81458 
endloop
endfacet
facet normal -0.257473 0.101857 0.960902 
outer loop
vertex -1.95465e-007 -30.8753 -2.18999 
vertex 1.09499 -30.8753 -1.89658 
vertex 1.625 -20.8753 -2.81458 
endloop
endfacet
facet normal -0.257473 0.101857 0.960902 
outer loop
vertex -1.95465e-007 -30.8753 -2.18999 
vertex 1.625 -20.8753 -2.81458 
vertex 3.87559e-008 -20.8753 -3.25 
endloop
endfacet
facet normal 2.37946e-006 1 -2.37946e-006 
outer loop
vertex 1.89658 -30.8753 -1.09499 
vertex 1.09499 -30.8753 -1.89658 
vertex -1.95465e-007 -30.8753 -2.18999 
endloop
endfacet
facet normal -8.70942e-007 1 3.2504e-006 
outer loop
vertex 1.89658 -30.8753 -1.09499 
vertex -1.95465e-007 -30.8753 -2.18999 
vertex -1.09499 -30.8753 -1.89658 
endloop
endfacet
facet normal -0 1 0 
outer loop
vertex 1.89658 -30.8753 -1.09499 
vertex -1.09499 -30.8753 -1.89658 
vertex -1.89658 -30.8753 -1.09499 
endloop
endfacet
facet normal 0 1 0 
outer loop
vertex 1.89658 -30.8753 -1.09499 
vertex -1.89658 -30.8753 -1.09499 
vertex -2.18999 -30.8753 1.1898e-007 
endloop
endfacet
facet normal 0 1 0 
outer loop
vertex 1.89658 -30.8753 -1.09499 
vertex -2.18999 -30.8753 1.1898e-007 
vertex -1.89658 -30.8753 1.09499 
endloop
endfacet
facet normal 0 1 0 
outer loop
vertex 1.89658 -30.8753 -1.09499 
vertex -1.89658 -30.8753 1.09499 
vertex -1.09499 -30.8753 1.89658 
endloop
endfacet
facet normal 0 1 0 
outer loop
vertex 1.89658 -30.8753 -1.09499 
vertex -1.09499 -30.8753 1.89658 
vertex -3.17308e-007 -30.8753 2.18999 
endloop
endfacet
facet normal 0 1 0 
outer loop
vertex 1.89658 -30.8753 -1.09499 
vertex -3.17308e-007 -30.8753 2.18999 
vertex 1.09499 -30.8753 1.89658 
endloop
endfacet
facet normal 0 1 0 
outer loop
vertex 1.89658 -30.8753 -1.09499 
vertex 1.09499 -30.8753 1.89658 
vertex 1.89658 -30.8753 1.09499 
endloop
endfacet
facet normal 0 1 0 
outer loop
vertex 1.89658 -30.8753 -1.09499 
vertex 1.89658 -30.8753 1.09499 
vertex 2.18999 -30.8753 3.10435e-007 
endloop
endfacet
facet normal -0.960902 0.101857 0.257473 
outer loop
vertex 3.25 -20.8753 -3.30665e-007 
vertex 2.81458 -20.8753 -1.625 
vertex 2.18999 -30.8753 3.10435e-007 
endloop
endfacet
facet normal -0.960902 0.101857 0.257473 
outer loop
vertex 2.81458 -20.8753 -1.625 
vertex 1.89658 -30.8753 -1.09499 
vertex 2.18999 -30.8753 3.10435e-007 
endloop
endfacet
facet normal -0.960902 0.101857 -0.257473 
outer loop
vertex 3.25 -20.8753 -3.30665e-007 
vertex 2.18999 -30.8753 3.10435e-007 
vertex 1.89658 -30.8753 1.09499 
endloop
endfacet
facet normal -0.960902 0.101857 -0.257473 
outer loop
vertex 3.25 -20.8753 -3.30665e-007 
vertex 1.89658 -30.8753 1.09499 
vertex 2.81458 -20.8753 1.625 
endloop
endfacet
facet normal -0.703429 0.101857 -0.703429 
outer loop
vertex 2.81458 -20.8753 1.625 
vertex 1.89658 -30.8753 1.09499 
vertex 1.625 -20.8753 2.81458 
endloop
endfacet
facet normal -0.703429 0.101857 -0.703429 
outer loop
vertex 1.89658 -30.8753 1.09499 
vertex 1.09499 -30.8753 1.89658 
vertex 1.625 -20.8753 2.81458 
endloop
endfacet
facet normal -0.257473 0.101857 -0.960902 
outer loop
vertex 1.625 -20.8753 2.81458 
vertex 1.09499 -30.8753 1.89658 
vertex -1.42062e-007 -20.8753 3.25 
endloop
endfacet
facet normal -0.257473 0.101857 -0.960902 
outer loop
vertex 1.09499 -30.8753 1.89658 
vertex -3.17308e-007 -30.8753 2.18999 
vertex -1.42062e-007 -20.8753 3.25 
endloop
endfacet
facet normal 0.257473 0.101857 -0.960902 
outer loop
vertex -3.17308e-007 -30.8753 2.18999 
vertex -1.09499 -30.8753 1.89658 
vertex -1.625 -20.8753 2.81458 
endloop
endfacet
facet normal 0.257473 0.101857 -0.960902 
outer loop
vertex -3.17308e-007 -30.8753 2.18999 
vertex -1.625 -20.8753 2.81458 
vertex -1.42062e-007 -20.8753 3.25 
endloop
endfacet
facet normal 0.703429 0.101857 -0.703429 
outer loop
vertex -1.09499 -30.8753 1.89658 
vertex -1.89658 -30.8753 1.09499 
vertex -1.625 -20.8753 2.81458 
endloop
endfacet
facet normal 0.703429 0.101857 -0.703429 
outer loop
vertex -1.89658 -30.8753 1.09499 
vertex -2.81458 -20.8753 1.625 
vertex -1.625 -20.8753 2.81458 
endloop
endfacet
facet normal 0.960902 0.101857 -0.257473 
outer loop
vertex -1.89658 -30.8753 1.09499 
vertex -2.18999 -30.8753 1.1898e-007 
vertex -2.81458 -20.8753 1.625 
endloop
endfacet
facet normal 0.960902 0.101857 -0.257473 
outer loop
vertex -2.18999 -30.8753 1.1898e-007 
vertex -3.25 -20.8753 -6.14789e-007 
vertex -2.81458 -20.8753 1.625 
endloop
endfacet
facet normal 0.960902 0.101857 0.257473 
outer loop
vertex -2.18999 -30.8753 1.1898e-007 
vertex -1.89658 -30.8753 -1.09499 
vertex -3.25 -20.8753 -6.14789e-007 
endloop
endfacet
facet normal 0.960902 0.101857 0.257473 
outer loop
vertex -1.89658 -30.8753 -1.09499 
vertex -2.81458 -20.8753 -1.625 
vertex -3.25 -20.8753 -6.14789e-007 
endloop
endfacet
facet normal 0.703429 0.101857 0.703429 
outer loop
vertex -2.81458 -20.8753 -1.625 
vertex -1.89658 -30.8753 -1.09499 
vertex -1.625 -20.8753 -2.81458 
endloop
endfacet
facet normal 0.703429 0.101857 0.703429 
outer loop
vertex -1.89658 -30.8753 -1.09499 
vertex -1.09499 -30.8753 -1.89658 
vertex -1.625 -20.8753 -2.81458 
endloop
endfacet
facet normal 0.257473 0.101857 0.960902 
outer loop
vertex -1.625 -20.8753 -2.81458 
vertex -1.09499 -30.8753 -1.89658 
vertex -1.95465e-007 -30.8753 -2.18999 
endloop
endfacet
facet normal 0.257473 0.101857 0.960902 
outer loop
vertex -1.625 -20.8753 -2.81458 
vertex -1.95465e-007 -30.8753 -2.18999 
vertex 3.87559e-008 -20.8753 -3.25 
endloop
endfacet
facet normal -0.258819 -8.24316e-009 0.965926 
outer loop
vertex 1.625 35 -2.81458 
vertex 2.88218e-008 35 -3.25 
vertex 1.625 -20.8753 -2.81458 
endloop
endfacet
facet normal -0.258819 -8.24317e-009 0.965926 
outer loop
vertex 2.88218e-008 35 -3.25 
vertex 3.87559e-008 -20.8753 -3.25 
vertex 1.625 -20.8753 -2.81458 
endloop
endfacet
endsolid Needle_receptor_6mm_x5
