solid E
facet normal 0.0906202 -0 0.995886 
outer loop
vertex 12.5918 26.7437 79.6503 
vertex 12.2205 26.7775 79.6841 
vertex 12.2205 -12.982 79.6841 
endloop
endfacet
facet normal 0.0906202 -0 0.995885 
outer loop
vertex 12.5918 26.7437 79.6503 
vertex 12.2205 -12.982 79.6841 
vertex 12.5918 -12.9482 79.6503 
endloop
endfacet
facet normal 0.274792 -6.63428e-009 0.961504 
outer loop
vertex 12.9254 26.6484 79.555 
vertex 12.5918 26.7437 79.6503 
vertex 12.9254 -12.8529 79.555 
endloop
endfacet
facet normal 0.274793 0 0.961503 
outer loop
vertex 12.5918 26.7437 79.6503 
vertex 12.5918 -12.9482 79.6503 
vertex 12.9254 -12.8529 79.555 
endloop
endfacet
facet normal 0.463601 -1.11927e-008 0.886044 
outer loop
vertex 13.208 26.5005 79.4071 
vertex 12.9254 26.6484 79.555 
vertex 12.9254 -12.8529 79.555 
endloop
endfacet
facet normal 0.4636 -0 0.886045 
outer loop
vertex 13.208 26.5005 79.4071 
vertex 12.9254 -12.8529 79.555 
vertex 13.208 -12.705 79.4071 
endloop
endfacet
facet normal 0.659179 -0 0.751986 
outer loop
vertex 13.4264 26.3091 79.2157 
vertex 13.208 26.5005 79.4071 
vertex 13.208 -12.705 79.4071 
endloop
endfacet
facet normal 0.659179 -0 0.751986 
outer loop
vertex 13.4264 26.3091 79.2157 
vertex 13.208 -12.705 79.4071 
vertex 13.4264 -12.5136 79.2157 
endloop
endfacet
facet normal 0.848714 -2.10941e-008 0.528852 
outer loop
vertex 13.5672 26.0831 78.9897 
vertex 13.4264 26.3091 79.2157 
vertex 13.5672 -12.2877 78.9897 
endloop
endfacet
facet normal 0.848716 0 0.528849 
outer loop
vertex 13.4264 26.3091 79.2157 
vertex 13.4264 -12.5136 79.2157 
vertex 13.5672 -12.2877 78.9897 
endloop
endfacet
facet normal 0.98088 -2.4379e-008 0.194611 
outer loop
vertex 13.6171 25.8317 78.7383 
vertex 13.5672 26.0831 78.9897 
vertex 13.5672 -12.2877 78.9897 
endloop
endfacet
facet normal 0.98088 -0 0.194615 
outer loop
vertex 13.6171 25.8317 78.7383 
vertex 13.5672 -12.2877 78.9897 
vertex 13.6171 -12.0362 78.7383 
endloop
endfacet
facet normal 1 0 -0 
outer loop
vertex 13.6171 25.8317 78.7383 
vertex 13.6171 -12.0362 78.7383 
vertex 13.6171 0.941079 70.3789 
endloop
endfacet
facet normal 1 0 -0 
outer loop
vertex 13.6171 25.8317 78.7383 
vertex 13.6171 0.941079 70.3789 
vertex 13.6171 10.1838 70.3789 
endloop
endfacet
facet normal 1 0 -0 
outer loop
vertex 13.6171 25.8317 78.7383 
vertex 13.6171 10.1838 70.3789 
vertex 13.6171 25.8317 70.3789 
endloop
endfacet
facet normal 1 0 -0 
outer loop
vertex 13.6171 26.5522 41.5989 
vertex 13.6171 10.4239 41.5989 
vertex 13.6171 26.5522 32.6172 
endloop
endfacet
facet normal 1 0 0 
outer loop
vertex 13.6171 0.941079 41.5989 
vertex 13.6171 26.5522 32.6172 
vertex 13.6171 10.4239 41.5989 
endloop
endfacet
facet normal 1 0 0 
outer loop
vertex 13.6171 26.5522 32.6172 
vertex 13.6171 0.941079 41.5989 
vertex 13.6171 -12.0362 32.6172 
endloop
endfacet
facet normal 1 0 -0 
outer loop
vertex 13.6171 0.941079 70.3789 
vertex 13.6171 -12.0362 32.6172 
vertex 13.6171 0.941079 41.5989 
endloop
endfacet
facet normal 1 0 0 
outer loop
vertex 13.6171 -12.0362 32.6172 
vertex 13.6171 0.941079 70.3789 
vertex 13.6171 -12.0362 78.7383 
endloop
endfacet
facet normal 0.98088 0 -0.194615 
outer loop
vertex 13.6171 -12.0362 32.6172 
vertex 13.5672 -12.2877 32.3658 
vertex 13.6171 26.5522 32.6172 
endloop
endfacet
facet normal 0.98088 0 -0.194615 
outer loop
vertex 13.5672 -12.2877 32.3658 
vertex 13.5672 26.8036 32.3658 
vertex 13.6171 26.5522 32.6172 
endloop
endfacet
facet normal 0.980879 0.194618 -3.91379e-008 
outer loop
vertex 13.6171 26.5522 32.6172 
vertex 13.5672 26.8036 32.3658 
vertex 13.5672 26.8036 41.8503 
endloop
endfacet
facet normal 0.980879 0.194616 0 
outer loop
vertex 13.6171 26.5522 32.6172 
vertex 13.5672 26.8036 41.8503 
vertex 13.6171 26.5522 41.5989 
endloop
endfacet
facet normal 0.848716 0.528849 -1.06352e-007 
outer loop
vertex 13.5672 26.8036 32.3658 
vertex 13.4264 27.0296 32.1399 
vertex 13.5672 26.8036 41.8503 
endloop
endfacet
facet normal 0.848714 0.528853 0 
outer loop
vertex 13.4264 27.0296 32.1399 
vertex 13.4264 27.0296 42.0762 
vertex 13.5672 26.8036 41.8503 
endloop
endfacet
facet normal 0.848712 -0 0.528856 
outer loop
vertex 13.5672 26.8036 41.8503 
vertex 13.4264 27.0296 42.0762 
vertex 13.4264 10.4239 42.0762 
endloop
endfacet
facet normal 0.848716 -1.23165e-007 0.52885 
outer loop
vertex 13.5672 26.8036 41.8503 
vertex 13.4264 10.4239 42.0762 
vertex 13.5672 10.4239 41.8503 
endloop
endfacet
facet normal 0.848649 -0.0125553 0.528808 
outer loop
vertex 13.5672 10.4239 41.8503 
vertex 13.4264 10.4239 42.0762 
vertex 13.332 1.35454 42.0123 
endloop
endfacet
facet normal 0.749791 -0.00761922 0.661631 
outer loop
vertex 13.5082 1.15257 41.8104 
vertex 13.5672 10.4239 41.8503 
vertex 13.332 1.35454 42.0123 
endloop
endfacet
facet normal 0.744421 0.667464 -0.0181417 
outer loop
vertex 13.5672 1.19251 45.6997 
vertex 13.5082 1.15257 41.8104 
vertex 13.332 1.35454 42.0123 
endloop
endfacet
facet normal 0.848308 0.528602 -0.0308686 
outer loop
vertex 13.5672 1.19251 45.6997 
vertex 13.332 1.35454 42.0123 
vertex 13.4264 1.41845 45.6997 
endloop
endfacet
facet normal 0.848713 0.528854 -0 
outer loop
vertex 13.4264 1.41845 48.8547 
vertex 13.5672 1.19251 48.8547 
vertex 13.4264 1.41845 45.6997 
endloop
endfacet
facet normal 0.848713 0.528854 0 
outer loop
vertex 13.5672 1.19251 48.8547 
vertex 13.5672 1.19251 45.6997 
vertex 13.4264 1.41845 45.6997 
endloop
endfacet
facet normal 0.659176 0.751989 -0 
outer loop
vertex 13.208 1.60987 48.8547 
vertex 13.4264 1.41845 48.8547 
vertex 13.208 1.60987 45.6997 
endloop
endfacet
facet normal 0.659176 0.751989 0 
outer loop
vertex 13.4264 1.41845 48.8547 
vertex 13.4264 1.41845 45.6997 
vertex 13.208 1.60987 45.6997 
endloop
endfacet
facet normal 0.463609 0.88604 -0 
outer loop
vertex 12.9254 1.75776 48.8547 
vertex 13.208 1.60987 48.8547 
vertex 12.9254 1.75776 45.6997 
endloop
endfacet
facet normal 0.463609 0.88604 0 
outer loop
vertex 13.208 1.60987 48.8547 
vertex 13.208 1.60987 45.6997 
vertex 12.9254 1.75776 45.6997 
endloop
endfacet
facet normal 0.274794 0.961503 -0 
outer loop
vertex 12.5918 1.8531 48.8547 
vertex 12.9254 1.75776 48.8547 
vertex 12.5918 1.8531 45.6997 
endloop
endfacet
facet normal 0.274794 0.961503 0 
outer loop
vertex 12.9254 1.75776 48.8547 
vertex 12.9254 1.75776 45.6997 
vertex 12.5918 1.8531 45.6997 
endloop
endfacet
facet normal 0.0906265 0.995885 0 
outer loop
vertex 12.5918 1.8531 45.6997 
vertex 12.2205 1.88689 42.5447 
vertex 12.5918 1.8531 48.8547 
endloop
endfacet
facet normal 0.0906265 0.995885 0 
outer loop
vertex 12.2205 1.88689 42.5447 
vertex 12.2205 1.88689 52.0097 
vertex 12.5918 1.8531 48.8547 
endloop
endfacet
facet normal 0.22611 0.973967 0.0161777 
outer loop
vertex 12.5328 1.81316 52.0834 
vertex 12.5918 1.8531 48.8547 
vertex 12.2205 1.88689 52.0097 
endloop
endfacet
facet normal 0.228244 -0.0067362 -0.973581 
outer loop
vertex 12.5918 9.58332 52.0435 
vertex 12.5328 1.81316 52.0834 
vertex 12.2205 1.88689 52.0097 
endloop
endfacet
facet normal 0.0906303 0 -0.995885 
outer loop
vertex 12.5918 9.58332 52.0435 
vertex 12.2205 1.88689 52.0097 
vertex 12.5918 24.9424 52.0435 
endloop
endfacet
facet normal 0.0906303 0 -0.995885 
outer loop
vertex 12.2205 1.88689 52.0097 
vertex 12.2205 24.9762 52.0097 
vertex 12.5918 24.9424 52.0435 
endloop
endfacet
facet normal 0.274793 0 -0.961503 
outer loop
vertex 12.9254 9.58332 52.1388 
vertex 12.5918 9.58332 52.0435 
vertex 12.5918 24.9424 52.0435 
endloop
endfacet
facet normal 0.274792 -1.71689e-008 -0.961504 
outer loop
vertex 12.9254 9.58332 52.1388 
vertex 12.5918 24.9424 52.0435 
vertex 12.9254 24.8471 52.1388 
endloop
endfacet
facet normal 0.463609 0 -0.88604 
outer loop
vertex 13.208 9.58332 52.2867 
vertex 12.9254 9.58332 52.1388 
vertex 13.208 24.6992 52.2867 
endloop
endfacet
facet normal 0.46361 -2.89662e-008 -0.886039 
outer loop
vertex 12.9254 9.58332 52.1388 
vertex 12.9254 24.8471 52.1388 
vertex 13.208 24.6992 52.2867 
endloop
endfacet
facet normal 0.659171 0 -0.751993 
outer loop
vertex 13.4264 9.58332 52.4781 
vertex 13.208 9.58332 52.2867 
vertex 13.208 24.6992 52.2867 
endloop
endfacet
facet normal 0.659171 0 -0.751993 
outer loop
vertex 13.4264 9.58332 52.4781 
vertex 13.208 24.6992 52.2867 
vertex 13.4264 24.5078 52.4781 
endloop
endfacet
facet normal 0.848716 0 -0.528849 
outer loop
vertex 13.5672 9.58332 52.704 
vertex 13.4264 9.58332 52.4781 
vertex 13.4264 24.5078 52.4781 
endloop
endfacet
facet normal 0.848714 -5.50665e-008 -0.528852 
outer loop
vertex 13.5672 9.58332 52.704 
vertex 13.4264 24.5078 52.4781 
vertex 13.5672 24.2819 52.704 
endloop
endfacet
facet normal 0.980879 0 -0.194618 
outer loop
vertex 13.6171 9.58332 52.9555 
vertex 13.5672 9.58332 52.704 
vertex 13.6171 24.0304 52.9555 
endloop
endfacet
facet normal 0.98088 -6.36417e-008 -0.194614 
outer loop
vertex 13.5672 9.58332 52.704 
vertex 13.5672 24.2819 52.704 
vertex 13.6171 24.0304 52.9555 
endloop
endfacet
facet normal 1 -0 0 
outer loop
vertex 13.6171 24.0304 52.9555 
vertex 13.6171 24.0304 60.8564 
vertex 13.6171 9.58333 60.8564 
endloop
endfacet
facet normal 1 -0 0 
outer loop
vertex 13.6171 24.0304 52.9555 
vertex 13.6171 9.58333 60.8564 
vertex 13.6171 0.941079 60.8564 
endloop
endfacet
facet normal 1 0 0 
outer loop
vertex 13.6171 24.0304 52.9555 
vertex 13.6171 0.941079 60.8564 
vertex 13.6171 0.941079 52.9555 
endloop
endfacet
facet normal 0 0 -0 
outer loop
vertex 13.6171 24.0304 52.9555 
vertex 13.6171 0.941079 52.9555 
vertex 13.6171 9.58332 52.9555 
endloop
endfacet
facet normal 0.889131 0 -0.457652 
outer loop
vertex 13.6171 9.58332 52.9555 
vertex 13.6171 0.941079 52.9555 
vertex 13.5082 1.15257 52.744 
endloop
endfacet
facet normal 0.889132 0.457651 0 
outer loop
vertex 13.6171 0.941079 52.9555 
vertex 13.6171 0.941079 48.8547 
vertex 13.5082 1.15257 52.744 
endloop
endfacet
facet normal 0.98074 0.194588 0.0168691 
outer loop
vertex 13.6171 0.941079 48.8547 
vertex 13.5672 1.19251 48.8547 
vertex 13.5082 1.15257 52.744 
endloop
endfacet
facet normal 0.744421 0.667464 0.0181417 
outer loop
vertex 13.5082 1.15257 52.744 
vertex 13.5672 1.19251 48.8547 
vertex 13.332 1.35454 52.542 
endloop
endfacet
facet normal 0.749408 -0.00837826 -0.662056 
outer loop
vertex 13.5672 9.58332 52.704 
vertex 13.5082 1.15257 52.744 
vertex 13.332 1.35454 52.542 
endloop
endfacet
facet normal 0.889131 0 0.457652 
outer loop
vertex 13.6171 0.941079 60.8564 
vertex 13.6171 9.58333 60.8564 
vertex 13.5082 1.15257 61.0678 
endloop
endfacet
facet normal 0.889132 0.457651 0 
outer loop
vertex 13.6171 0.941079 64.3458 
vertex 13.6171 0.941079 60.8564 
vertex 13.5082 1.15257 61.0678 
endloop
endfacet
facet normal 0.980683 0.194576 -0.020014 
outer loop
vertex 13.6171 0.941079 64.3458 
vertex 13.5082 1.15257 61.0678 
vertex 13.5672 1.19251 64.3458 
endloop
endfacet
facet normal 0.98088 0.194615 -0 
outer loop
vertex 13.5672 1.19251 66.8895 
vertex 13.6171 0.941079 66.8895 
vertex 13.5672 1.19251 64.3458 
endloop
endfacet
facet normal 0.98088 0.194615 0 
outer loop
vertex 13.6171 0.941079 66.8895 
vertex 13.6171 0.941079 64.3458 
vertex 13.5672 1.19251 64.3458 
endloop
endfacet
facet normal 0.848713 0.528854 -0 
outer loop
vertex 13.4264 1.41845 66.8895 
vertex 13.5672 1.19251 66.8895 
vertex 13.4264 1.41845 64.3458 
endloop
endfacet
facet normal 0.848713 0.528854 0 
outer loop
vertex 13.5672 1.19251 66.8895 
vertex 13.5672 1.19251 64.3458 
vertex 13.4264 1.41845 64.3458 
endloop
endfacet
facet normal 0.659176 0.751989 -0 
outer loop
vertex 13.208 1.60987 66.8895 
vertex 13.4264 1.41845 66.8895 
vertex 13.208 1.60987 64.3458 
endloop
endfacet
facet normal 0.659176 0.751989 0 
outer loop
vertex 13.4264 1.41845 66.8895 
vertex 13.4264 1.41845 64.3458 
vertex 13.208 1.60987 64.3458 
endloop
endfacet
facet normal 0.463609 0.88604 -0 
outer loop
vertex 12.9254 1.75776 66.8895 
vertex 13.208 1.60987 66.8895 
vertex 12.9254 1.75776 64.3458 
endloop
endfacet
facet normal 0.463609 0.88604 0 
outer loop
vertex 13.208 1.60987 66.8895 
vertex 13.208 1.60987 64.3458 
vertex 12.9254 1.75776 64.3458 
endloop
endfacet
facet normal 0.274794 0.961503 -0 
outer loop
vertex 12.5918 1.8531 66.8895 
vertex 12.9254 1.75776 66.8895 
vertex 12.5918 1.8531 64.3458 
endloop
endfacet
facet normal 0.274794 0.961503 0 
outer loop
vertex 12.9254 1.75776 66.8895 
vertex 12.9254 1.75776 64.3458 
vertex 12.5918 1.8531 64.3458 
endloop
endfacet
facet normal 0.0906265 0.995885 0 
outer loop
vertex 12.5918 1.8531 64.3458 
vertex 12.2205 1.88689 61.8022 
vertex 12.5918 1.8531 66.8895 
endloop
endfacet
facet normal 0.0906265 0.995885 0 
outer loop
vertex 12.2205 1.88689 61.8022 
vertex 12.2205 1.88689 69.4331 
vertex 12.5918 1.8531 66.8895 
endloop
endfacet
facet normal 0.225257 0.974095 0.0199396 
outer loop
vertex 12.5328 1.81316 69.5068 
vertex 12.5918 1.8531 66.8895 
vertex 12.2205 1.88689 69.4331 
endloop
endfacet
facet normal 0.228353 -0.00625407 -0.973558 
outer loop
vertex 12.5918 10.1838 69.4669 
vertex 12.5328 1.81316 69.5068 
vertex 12.2205 1.88689 69.4331 
endloop
endfacet
facet normal 0.0906204 0 -0.995886 
outer loop
vertex 12.5918 10.1838 69.4669 
vertex 12.2205 1.88689 69.4331 
vertex 12.2205 26.7775 69.4331 
endloop
endfacet
facet normal 0.0906202 -5.21874e-009 -0.995886 
outer loop
vertex 12.5918 10.1838 69.4669 
vertex 12.2205 26.7775 69.4331 
vertex 12.5918 26.7437 69.4669 
endloop
endfacet
facet normal 0.274813 0 -0.961498 
outer loop
vertex 12.9254 10.1838 69.5623 
vertex 12.5918 10.1838 69.4669 
vertex 12.9254 26.6484 69.5623 
endloop
endfacet
facet normal 0.274814 -1.58263e-008 -0.961497 
outer loop
vertex 12.5918 10.1838 69.4669 
vertex 12.5918 26.7437 69.4669 
vertex 12.9254 26.6484 69.5623 
endloop
endfacet
facet normal 0.463581 0 -0.886055 
outer loop
vertex 13.208 10.1838 69.7101 
vertex 12.9254 10.1838 69.5623 
vertex 12.9254 26.6484 69.5623 
endloop
endfacet
facet normal 0.4636 4.14298e-007 -0.886045 
outer loop
vertex 13.208 10.1838 69.7101 
vertex 12.9254 26.6484 69.5623 
vertex 13.208 26.5005 69.7101 
endloop
endfacet
facet normal 0.659177 0 -0.751988 
outer loop
vertex 13.4264 10.1838 69.9016 
vertex 13.208 10.1838 69.7101 
vertex 13.4264 26.3091 69.9016 
endloop
endfacet
facet normal 0.659162 3.51622e-007 -0.752001 
outer loop
vertex 13.208 10.1838 69.7101 
vertex 13.208 26.5005 69.7101 
vertex 13.4264 26.3091 69.9016 
endloop
endfacet
facet normal 0.848716 0 -0.52885 
outer loop
vertex 13.5672 10.1838 70.1275 
vertex 13.4264 10.1838 69.9016 
vertex 13.4264 26.3091 69.9016 
endloop
endfacet
facet normal 0.848716 0 -0.528849 
outer loop
vertex 13.5672 10.1838 70.1275 
vertex 13.4264 26.3091 69.9016 
vertex 13.5672 26.0831 70.1275 
endloop
endfacet
facet normal 0.848645 -0.0128974 -0.528806 
outer loop
vertex 13.5672 10.1838 70.1275 
vertex 13.332 1.35454 69.9655 
vertex 13.4264 10.1838 69.9016 
endloop
endfacet
facet normal 0.617189 -0.0122907 -0.786719 
outer loop
vertex 13.4264 10.1838 69.9016 
vertex 13.332 1.35454 69.9655 
vertex 13.1019 1.53798 69.782 
endloop
endfacet
facet normal 0.605606 0.79499 0.0350932 
outer loop
vertex 13.332 1.35454 69.9655 
vertex 13.4264 1.41845 66.8895 
vertex 13.1019 1.53798 69.782 
endloop
endfacet
facet normal 0.749681 -0.00782195 -0.661754 
outer loop
vertex 13.5672 10.1838 70.1275 
vertex 13.5082 1.15257 70.1674 
vertex 13.332 1.35454 69.9655 
endloop
endfacet
facet normal 0.742668 0.669314 0.0215164 
outer loop
vertex 13.5082 1.15257 70.1674 
vertex 13.5672 1.19251 66.8895 
vertex 13.332 1.35454 69.9655 
endloop
endfacet
facet normal 0.980854 -0.00726559 -0.19461 
outer loop
vertex 13.6171 10.1838 70.3789 
vertex 13.5082 1.15257 70.1674 
vertex 13.5672 10.1838 70.1275 
endloop
endfacet
facet normal 0.659109 -0.0143454 -0.751911 
outer loop
vertex 13.4264 10.1838 69.9016 
vertex 13.1019 1.53798 69.782 
vertex 13.208 10.1838 69.7101 
endloop
endfacet
facet normal 0.493015 -0.0132875 -0.869919 
outer loop
vertex 13.208 10.1838 69.7101 
vertex 13.1019 1.53798 69.782 
vertex 12.831 1.69386 69.6262 
endloop
endfacet
facet normal 0.481273 0.875684 0.0394257 
outer loop
vertex 13.1019 1.53798 69.782 
vertex 13.208 1.60987 66.8895 
vertex 12.831 1.69386 69.6262 
endloop
endfacet
facet normal 0.463548 -0.01182 -0.885993 
outer loop
vertex 13.208 10.1838 69.7101 
vertex 12.831 1.69386 69.6262 
vertex 12.9254 10.1838 69.5623 
endloop
endfacet
facet normal 0.36759 -0.0110841 -0.929922 
outer loop
vertex 12.9254 10.1838 69.5623 
vertex 12.831 1.69386 69.6262 
vertex 12.5328 1.81316 69.5068 
endloop
endfacet
facet normal 0.359409 0.932554 0.0341679 
outer loop
vertex 12.831 1.69386 69.6262 
vertex 12.9254 1.75776 66.8895 
vertex 12.5328 1.81316 69.5068 
endloop
endfacet
facet normal 0.0906202 -5.62677e-009 0.995886 
outer loop
vertex 12.5918 24.9424 61.7684 
vertex 12.2205 24.9762 61.8022 
vertex 12.5918 9.58333 61.7684 
endloop
endfacet
facet normal 0.0906204 0 0.995886 
outer loop
vertex 12.2205 24.9762 61.8022 
vertex 12.2205 1.88689 61.8022 
vertex 12.5918 9.58333 61.7684 
endloop
endfacet
facet normal 0.274803 -1.71696e-008 0.961501 
outer loop
vertex 12.9254 24.8471 61.673 
vertex 12.5918 24.9424 61.7684 
vertex 12.9254 9.58333 61.673 
endloop
endfacet
facet normal 0.274803 -1.7063e-008 0.9615 
outer loop
vertex 12.5918 24.9424 61.7684 
vertex 12.5918 9.58333 61.7684 
vertex 12.9254 9.58333 61.673 
endloop
endfacet
facet normal 0.4636 -2.92489e-008 0.886045 
outer loop
vertex 13.208 24.6992 61.5251 
vertex 12.9254 24.8471 61.673 
vertex 13.208 9.58333 61.5251 
endloop
endfacet
facet normal 0.4636 -2.89655e-008 0.886045 
outer loop
vertex 12.9254 24.8471 61.673 
vertex 12.9254 9.58333 61.673 
vertex 13.208 9.58333 61.5251 
endloop
endfacet
facet normal 0.659171 -4.15877e-008 0.751993 
outer loop
vertex 13.4264 24.5078 61.3337 
vertex 13.208 24.6992 61.5251 
vertex 13.208 9.58333 61.5251 
endloop
endfacet
facet normal 0.65917 -0 0.751994 
outer loop
vertex 13.4264 24.5078 61.3337 
vertex 13.208 9.58333 61.5251 
vertex 13.4264 9.58333 61.3337 
endloop
endfacet
facet normal 0.848716 -0 0.528849 
outer loop
vertex 13.5672 24.2818 61.1078 
vertex 13.4264 24.5078 61.3337 
vertex 13.5672 9.58333 61.1078 
endloop
endfacet
facet normal 0.848716 0 0.528849 
outer loop
vertex 13.4264 24.5078 61.3337 
vertex 13.4264 9.58333 61.3337 
vertex 13.5672 9.58333 61.1078 
endloop
endfacet
facet normal 0.848634 -0.0138377 0.528799 
outer loop
vertex 13.5672 9.58333 61.1078 
vertex 13.4264 9.58333 61.3337 
vertex 13.332 1.35454 61.2698 
endloop
endfacet
facet normal 0.749414 -0.00837856 0.662049 
outer loop
vertex 13.5082 1.15257 61.0678 
vertex 13.5672 9.58333 61.1078 
vertex 13.332 1.35454 61.2698 
endloop
endfacet
facet normal 0.616734 -0.0131842 0.787061 
outer loop
vertex 13.332 1.35454 61.2698 
vertex 13.4264 9.58333 61.3337 
vertex 13.1019 1.53798 61.4533 
endloop
endfacet
facet normal 0.605606 0.794991 -0.0350928 
outer loop
vertex 13.4264 1.41845 64.3458 
vertex 13.332 1.35454 61.2698 
vertex 13.1019 1.53798 61.4533 
endloop
endfacet
facet normal 0.659091 -0.015415 0.751905 
outer loop
vertex 13.4264 9.58333 61.3337 
vertex 13.208 9.58333 61.5251 
vertex 13.1019 1.53798 61.4533 
endloop
endfacet
facet normal 0.492571 -0.0142746 0.870155 
outer loop
vertex 13.1019 1.53798 61.4533 
vertex 13.208 9.58333 61.5251 
vertex 12.831 1.69386 61.6091 
endloop
endfacet
facet normal 0.48127 0.875686 -0.0394253 
outer loop
vertex 13.208 1.60987 64.3458 
vertex 13.1019 1.53798 61.4533 
vertex 12.831 1.69386 61.6091 
endloop
endfacet
facet normal 0.463562 -0.01272 0.885973 
outer loop
vertex 13.208 9.58333 61.5251 
vertex 12.9254 9.58333 61.673 
vertex 12.831 1.69386 61.6091 
endloop
endfacet
facet normal 0.367296 -0.0119255 0.930028 
outer loop
vertex 12.831 1.69386 61.6091 
vertex 12.9254 9.58333 61.673 
vertex 12.5328 1.81316 61.7284 
endloop
endfacet
facet normal 0.359412 0.932553 -0.0341681 
outer loop
vertex 12.9254 1.75776 64.3458 
vertex 12.831 1.69386 61.6091 
vertex 12.5328 1.81316 61.7284 
endloop
endfacet
facet normal 0.274796 -0.00702773 0.961477 
outer loop
vertex 12.9254 9.58333 61.673 
vertex 12.5918 9.58333 61.7684 
vertex 12.5328 1.81316 61.7284 
endloop
endfacet
facet normal 0.228244 -0.00673664 0.973581 
outer loop
vertex 12.5328 1.81316 61.7284 
vertex 12.5918 9.58333 61.7684 
vertex 12.2205 1.88689 61.8022 
endloop
endfacet
facet normal 0.0906252 0.995885 0 
outer loop
vertex 12.5918 27.4642 31.7052 
vertex 12.2205 27.498 31.6714 
vertex 12.5918 27.4642 42.5109 
endloop
endfacet
facet normal 0.0906252 0.995885 0 
outer loop
vertex 12.2205 27.498 31.6714 
vertex 12.2205 27.498 42.5447 
vertex 12.5918 27.4642 42.5109 
endloop
endfacet
facet normal 0.274797 0.961502 0 
outer loop
vertex 12.9254 27.3689 31.8005 
vertex 12.5918 27.4642 31.7052 
vertex 12.9254 27.3689 42.4156 
endloop
endfacet
facet normal 0.274797 0.961502 0 
outer loop
vertex 12.5918 27.4642 31.7052 
vertex 12.5918 27.4642 42.5109 
vertex 12.9254 27.3689 42.4156 
endloop
endfacet
facet normal 0.463596 0.886047 0 
outer loop
vertex 13.208 27.221 31.9484 
vertex 12.9254 27.3689 31.8005 
vertex 13.208 27.221 42.2677 
endloop
endfacet
facet normal 0.463596 0.886047 0 
outer loop
vertex 12.9254 27.3689 31.8005 
vertex 12.9254 27.3689 42.4156 
vertex 13.208 27.221 42.2677 
endloop
endfacet
facet normal 0.46361 -2.60923e-008 0.886039 
outer loop
vertex 13.208 27.221 42.2677 
vertex 12.9254 27.3689 42.4156 
vertex 12.9254 10.4239 42.4156 
endloop
endfacet
facet normal 0.463609 -0 0.88604 
outer loop
vertex 13.208 27.221 42.2677 
vertex 12.9254 10.4239 42.4156 
vertex 13.208 10.4239 42.2677 
endloop
endfacet
facet normal 0.463578 -0.0114959 0.885981 
outer loop
vertex 13.208 10.4239 42.2677 
vertex 12.9254 10.4239 42.4156 
vertex 12.831 1.69386 42.3516 
endloop
endfacet
facet normal 0.493155 -0.0129284 0.869846 
outer loop
vertex 13.1019 1.53798 42.1958 
vertex 13.208 10.4239 42.2677 
vertex 12.831 1.69386 42.3516 
endloop
endfacet
facet normal 0.484369 0.874256 -0.0326112 
outer loop
vertex 13.208 1.60987 45.6997 
vertex 13.1019 1.53798 42.1958 
vertex 12.831 1.69386 42.3516 
endloop
endfacet
facet normal 0.659107 -0.0139568 0.75192 
outer loop
vertex 13.4264 10.4239 42.0762 
vertex 13.208 10.4239 42.2677 
vertex 13.1019 1.53798 42.1958 
endloop
endfacet
facet normal 0.367696 -0.0107809 0.929883 
outer loop
vertex 12.831 1.69386 42.3516 
vertex 12.9254 10.4239 42.4156 
vertex 12.5328 1.81316 42.471 
endloop
endfacet
facet normal 0.361628 0.931902 -0.027979 
outer loop
vertex 12.9254 1.75776 45.6997 
vertex 12.831 1.69386 42.3516 
vertex 12.5328 1.81316 42.471 
endloop
endfacet
facet normal 0.274787 -0.00634167 0.961484 
outer loop
vertex 12.9254 10.4239 42.4156 
vertex 12.5918 10.4239 42.5109 
vertex 12.5328 1.81316 42.471 
endloop
endfacet
facet normal 0.228403 -0.00607995 0.973548 
outer loop
vertex 12.5328 1.81316 42.471 
vertex 12.5918 10.4239 42.5109 
vertex 12.2205 1.88689 42.5447 
endloop
endfacet
facet normal 0.463604 -4.23281e-008 -0.886042 
outer loop
vertex 13.208 -12.705 31.9484 
vertex 12.9254 -12.8529 31.8005 
vertex 13.208 27.221 31.9484 
endloop
endfacet
facet normal 0.463601 -1.09922e-008 -0.886044 
outer loop
vertex 12.9254 -12.8529 31.8005 
vertex 12.9254 27.3689 31.8005 
vertex 13.208 27.221 31.9484 
endloop
endfacet
facet normal 0.659179 -7.25435e-008 -0.751986 
outer loop
vertex 13.4264 -12.5136 32.1399 
vertex 13.208 -12.705 31.9484 
vertex 13.4264 27.0296 32.1399 
endloop
endfacet
facet normal 0.659175 -3.59241e-008 -0.75199 
outer loop
vertex 13.208 -12.705 31.9484 
vertex 13.208 27.221 31.9484 
vertex 13.4264 27.0296 32.1399 
endloop
endfacet
facet normal 0.274792 -1.54655e-008 0.961504 
outer loop
vertex 12.9254 27.3689 42.4156 
vertex 12.5918 27.4642 42.5109 
vertex 12.9254 10.4239 42.4156 
endloop
endfacet
facet normal 0.274793 0 0.961503 
outer loop
vertex 12.5918 27.4642 42.5109 
vertex 12.5918 10.4239 42.5109 
vertex 12.9254 10.4239 42.4156 
endloop
endfacet
facet normal 0.274798 0 -0.961502 
outer loop
vertex 12.9254 -12.8529 31.8005 
vertex 12.5918 -12.9482 31.7052 
vertex 12.5918 27.4642 31.7052 
endloop
endfacet
facet normal 0.274797 -6.51555e-009 -0.961502 
outer loop
vertex 12.9254 -12.8529 31.8005 
vertex 12.5918 27.4642 31.7052 
vertex 12.9254 27.3689 31.8005 
endloop
endfacet
facet normal 0.0906202 1.48334e-007 0.995886 
outer loop
vertex 12.5918 27.4642 42.5109 
vertex 12.2205 27.498 42.5447 
vertex 12.2205 1.88689 42.5447 
endloop
endfacet
facet normal 0.0906303 -0 0.995885 
outer loop
vertex 12.5918 27.4642 42.5109 
vertex 12.2205 1.88689 42.5447 
vertex 12.5918 10.4239 42.5109 
endloop
endfacet
facet normal 0.0906252 0 -0.995885 
outer loop
vertex 12.5918 -12.9482 31.7052 
vertex 12.2205 -12.982 31.6714 
vertex 12.5918 27.4642 31.7052 
endloop
endfacet
facet normal 0.0906252 0 -0.995885 
outer loop
vertex 12.2205 -12.982 31.6714 
vertex 12.2205 27.498 31.6714 
vertex 12.5918 27.4642 31.7052 
endloop
endfacet
facet normal 0.274807 -0.00652371 -0.961477 
outer loop
vertex 12.9254 10.1838 69.5623 
vertex 12.5328 1.81316 69.5068 
vertex 12.5918 10.1838 69.4669 
endloop
endfacet
facet normal 0.225253 0.974096 -0.0199391 
outer loop
vertex 12.5918 1.8531 64.3458 
vertex 12.5328 1.81316 61.7284 
vertex 12.2205 1.88689 61.8022 
endloop
endfacet
facet normal 0.274734 0.961294 -0.0208586 
outer loop
vertex 12.9254 1.75776 64.3458 
vertex 12.5328 1.81316 61.7284 
vertex 12.5918 1.8531 64.3458 
endloop
endfacet
facet normal 0.274734 0.961294 0.0208591 
outer loop
vertex 12.9254 1.75776 66.8895 
vertex 12.5918 1.8531 66.8895 
vertex 12.5328 1.81316 69.5068 
endloop
endfacet
facet normal 0.463297 0.885445 -0.0366499 
outer loop
vertex 13.208 1.60987 64.3458 
vertex 12.831 1.69386 61.6091 
vertex 12.9254 1.75776 64.3458 
endloop
endfacet
facet normal 0.463297 0.885445 0.0366498 
outer loop
vertex 13.208 1.60987 66.8895 
vertex 12.9254 1.75776 66.8895 
vertex 12.831 1.69386 69.6262 
endloop
endfacet
facet normal 0.658571 0.751298 -0.0428406 
outer loop
vertex 13.4264 1.41845 64.3458 
vertex 13.1019 1.53798 61.4533 
vertex 13.208 1.60987 64.3458 
endloop
endfacet
facet normal 0.658571 0.751298 0.0428408 
outer loop
vertex 13.4264 1.41845 66.8895 
vertex 13.208 1.60987 66.8895 
vertex 13.1019 1.53798 69.782 
endloop
endfacet
facet normal 0.848132 0.528492 -0.036996 
outer loop
vertex 13.5672 1.19251 64.3458 
vertex 13.332 1.35454 61.2698 
vertex 13.4264 1.41845 64.3458 
endloop
endfacet
facet normal 0.848132 0.528492 0.0369963 
outer loop
vertex 13.5672 1.19251 66.8895 
vertex 13.4264 1.41845 66.8895 
vertex 13.332 1.35454 69.9655 
endloop
endfacet
facet normal 0.980683 0.194576 0.0200141 
outer loop
vertex 13.6171 0.941079 66.8895 
vertex 13.5672 1.19251 66.8895 
vertex 13.5082 1.15257 70.1674 
endloop
endfacet
facet normal 0.889131 0.457653 0 
outer loop
vertex 13.6171 0.941079 70.3789 
vertex 13.6171 0.941079 66.8895 
vertex 13.5082 1.15257 70.1674 
endloop
endfacet
facet normal 0.74267 0.669312 -0.0215161 
outer loop
vertex 13.5672 1.19251 64.3458 
vertex 13.5082 1.15257 61.0678 
vertex 13.332 1.35454 61.2698 
endloop
endfacet
facet normal 0.98085 -0.00778301 0.194609 
outer loop
vertex 13.6171 9.58333 60.8564 
vertex 13.5672 9.58333 61.1078 
vertex 13.5082 1.15257 61.0678 
endloop
endfacet
facet normal 0.98088 -0 0.194615 
outer loop
vertex 13.6171 24.0304 60.8564 
vertex 13.5672 24.2818 61.1078 
vertex 13.6171 9.58333 60.8564 
endloop
endfacet
facet normal 0.98088 0 0.194615 
outer loop
vertex 13.5672 24.2818 61.1078 
vertex 13.5672 9.58333 61.1078 
vertex 13.6171 9.58333 60.8564 
endloop
endfacet
facet normal 0.980881 0.19461 9.39615e-008 
outer loop
vertex 13.6171 24.0304 52.9555 
vertex 13.5672 24.2819 52.704 
vertex 13.6171 24.0304 60.8564 
endloop
endfacet
facet normal 0.98088 0.194615 2.43824e-007 
outer loop
vertex 13.5672 24.2819 52.704 
vertex 13.5672 24.2818 61.1078 
vertex 13.6171 24.0304 60.8564 
endloop
endfacet
facet normal 0.98085 -0.00778294 -0.194612 
outer loop
vertex 13.6171 9.58332 52.9555 
vertex 13.5082 1.15257 52.744 
vertex 13.5672 9.58332 52.704 
endloop
endfacet
facet normal 0.84871 0.528859 2.27814e-007 
outer loop
vertex 13.5672 24.2819 52.704 
vertex 13.4264 24.5078 52.4781 
vertex 13.4264 24.5078 61.3337 
endloop
endfacet
facet normal 0.848714 0.528852 4.56405e-007 
outer loop
vertex 13.5672 24.2819 52.704 
vertex 13.4264 24.5078 61.3337 
vertex 13.5672 24.2818 61.1078 
endloop
endfacet
facet normal 0.848634 -0.0138377 -0.528799 
outer loop
vertex 13.5672 9.58332 52.704 
vertex 13.332 1.35454 52.542 
vertex 13.4264 9.58332 52.4781 
endloop
endfacet
facet normal 0.616742 -0.0131842 -0.787055 
outer loop
vertex 13.4264 9.58332 52.4781 
vertex 13.332 1.35454 52.542 
vertex 13.1019 1.53798 52.3586 
endloop
endfacet
facet normal 0.608582 0.792949 0.0293153 
outer loop
vertex 13.332 1.35454 52.542 
vertex 13.4264 1.41845 48.8547 
vertex 13.1019 1.53798 52.3586 
endloop
endfacet
facet normal 0.659175 0.75199 1.55254e-007 
outer loop
vertex 13.4264 24.5078 52.4781 
vertex 13.208 24.6992 52.2867 
vertex 13.208 24.6992 61.5251 
endloop
endfacet
facet normal 0.659179 0.751986 3.2393e-007 
outer loop
vertex 13.4264 24.5078 52.4781 
vertex 13.208 24.6992 61.5251 
vertex 13.4264 24.5078 61.3337 
endloop
endfacet
facet normal 0.659093 -0.0154148 -0.751904 
outer loop
vertex 13.4264 9.58332 52.4781 
vertex 13.1019 1.53798 52.3586 
vertex 13.208 9.58332 52.2867 
endloop
endfacet
facet normal 0.492562 -0.0142742 -0.870161 
outer loop
vertex 13.208 9.58332 52.2867 
vertex 13.1019 1.53798 52.3586 
vertex 12.831 1.69386 52.2027 
endloop
endfacet
facet normal 0.484369 0.874256 0.0326111 
outer loop
vertex 13.1019 1.53798 52.3586 
vertex 13.208 1.60987 48.8547 
vertex 12.831 1.69386 52.2027 
endloop
endfacet
facet normal 0.463601 0.886044 4.63723e-008 
outer loop
vertex 13.208 24.6992 52.2867 
vertex 12.9254 24.8471 52.1388 
vertex 12.9254 24.8471 61.673 
endloop
endfacet
facet normal 0.463604 0.886042 1.8293e-007 
outer loop
vertex 13.208 24.6992 52.2867 
vertex 12.9254 24.8471 61.673 
vertex 13.208 24.6992 61.5251 
endloop
endfacet
facet normal 0.463572 -0.0127206 -0.885968 
outer loop
vertex 13.208 9.58332 52.2867 
vertex 12.831 1.69386 52.2027 
vertex 12.9254 9.58332 52.1388 
endloop
endfacet
facet normal 0.367306 -0.0119261 -0.930024 
outer loop
vertex 12.9254 9.58332 52.1388 
vertex 12.831 1.69386 52.2027 
vertex 12.5328 1.81316 52.0834 
endloop
endfacet
facet normal 0.361628 0.931903 0.027979 
outer loop
vertex 12.831 1.69386 52.2027 
vertex 12.9254 1.75776 48.8547 
vertex 12.5328 1.81316 52.0834 
endloop
endfacet
facet normal 0.274797 0.961502 2.7487e-008 
outer loop
vertex 12.9254 24.8471 52.1388 
vertex 12.5918 24.9424 52.0435 
vertex 12.9254 24.8471 61.673 
endloop
endfacet
facet normal 0.274798 0.961502 0 
outer loop
vertex 12.5918 24.9424 52.0435 
vertex 12.5918 24.9424 61.7684 
vertex 12.9254 24.8471 61.673 
endloop
endfacet
facet normal 0.0906252 0.995885 0 
outer loop
vertex 12.5918 24.9424 52.0435 
vertex 12.2205 24.9762 52.0097 
vertex 12.5918 24.9424 61.7684 
endloop
endfacet
facet normal 0.0906252 0.995885 0 
outer loop
vertex 12.2205 24.9762 52.0097 
vertex 12.2205 24.9762 61.8022 
vertex 12.5918 24.9424 61.7684 
endloop
endfacet
facet normal 0.274786 -0.00702724 -0.96148 
outer loop
vertex 12.9254 9.58332 52.1388 
vertex 12.5328 1.81316 52.0834 
vertex 12.5918 9.58332 52.0435 
endloop
endfacet
facet normal 0.22611 0.973967 -0.0161777 
outer loop
vertex 12.5918 1.8531 45.6997 
vertex 12.5328 1.81316 42.471 
vertex 12.2205 1.88689 42.5447 
endloop
endfacet
facet normal 0.274755 0.961366 -0.0169104 
outer loop
vertex 12.9254 1.75776 45.6997 
vertex 12.5328 1.81316 42.471 
vertex 12.5918 1.8531 45.6997 
endloop
endfacet
facet normal 0.274755 0.961366 0.0169104 
outer loop
vertex 12.9254 1.75776 48.8547 
vertex 12.5918 1.8531 48.8547 
vertex 12.5328 1.81316 52.0834 
endloop
endfacet
facet normal 0.463401 0.885642 -0.0299644 
outer loop
vertex 13.208 1.60987 45.6997 
vertex 12.831 1.69386 42.3516 
vertex 12.9254 1.75776 45.6997 
endloop
endfacet
facet normal 0.463401 0.885642 0.0299643 
outer loop
vertex 13.208 1.60987 48.8547 
vertex 12.9254 1.75776 48.8547 
vertex 12.831 1.69386 52.2027 
endloop
endfacet
facet normal 0.658763 0.751518 -0.0353763 
outer loop
vertex 13.4264 1.41845 45.6997 
vertex 13.1019 1.53798 42.1958 
vertex 13.208 1.60987 45.6997 
endloop
endfacet
facet normal 0.658763 0.751518 0.0353763 
outer loop
vertex 13.4264 1.41845 48.8547 
vertex 13.208 1.60987 48.8547 
vertex 13.1019 1.53798 52.3586 
endloop
endfacet
facet normal 0.98088 0.194615 -0 
outer loop
vertex 13.5672 1.19251 48.8547 
vertex 13.6171 0.941079 48.8547 
vertex 13.5672 1.19251 45.6997 
endloop
endfacet
facet normal 0.98088 0.194615 0 
outer loop
vertex 13.6171 0.941079 48.8547 
vertex 13.6171 0.941079 45.6997 
vertex 13.5672 1.19251 45.6997 
endloop
endfacet
facet normal 0.848308 0.528602 0.0308686 
outer loop
vertex 13.5672 1.19251 48.8547 
vertex 13.4264 1.41845 48.8547 
vertex 13.332 1.35454 52.542 
endloop
endfacet
facet normal 0.608582 0.792949 -0.0293153 
outer loop
vertex 13.4264 1.41845 45.6997 
vertex 13.332 1.35454 42.0123 
vertex 13.1019 1.53798 42.1958 
endloop
endfacet
facet normal 0.98074 0.194588 -0.0168691 
outer loop
vertex 13.6171 0.941079 45.6997 
vertex 13.5082 1.15257 41.8104 
vertex 13.5672 1.19251 45.6997 
endloop
endfacet
facet normal 0.889132 0.457651 0 
outer loop
vertex 13.6171 0.941079 45.6997 
vertex 13.6171 0.941079 41.5989 
vertex 13.5082 1.15257 41.8104 
endloop
endfacet
facet normal 0.980855 -0.00707731 0.194613 
outer loop
vertex 13.6171 10.4239 41.5989 
vertex 13.5672 10.4239 41.8503 
vertex 13.5082 1.15257 41.8104 
endloop
endfacet
facet normal 0.617349 -0.0119653 0.786598 
outer loop
vertex 13.332 1.35454 42.0123 
vertex 13.4264 10.4239 42.0762 
vertex 13.1019 1.53798 42.1958 
endloop
endfacet
facet normal 0.659171 -0 0.751993 
outer loop
vertex 13.4264 27.0296 42.0762 
vertex 13.208 27.221 42.2677 
vertex 13.4264 10.4239 42.0762 
endloop
endfacet
facet normal 0.659171 0 0.751993 
outer loop
vertex 13.208 27.221 42.2677 
vertex 13.208 10.4239 42.2677 
vertex 13.4264 10.4239 42.0762 
endloop
endfacet
facet normal 0.659179 0.751986 0 
outer loop
vertex 13.4264 27.0296 32.1399 
vertex 13.208 27.221 31.9484 
vertex 13.4264 27.0296 42.0762 
endloop
endfacet
facet normal 0.659179 0.751986 0 
outer loop
vertex 13.208 27.221 31.9484 
vertex 13.208 27.221 42.2677 
vertex 13.4264 27.0296 42.0762 
endloop
endfacet
facet normal 0.848712 -5.10183e-008 -0.528856 
outer loop
vertex 13.5672 -12.2877 32.3658 
vertex 13.4264 -12.5136 32.1399 
vertex 13.4264 27.0296 32.1399 
endloop
endfacet
facet normal 0.848716 0 -0.52885 
outer loop
vertex 13.5672 -12.2877 32.3658 
vertex 13.4264 27.0296 32.1399 
vertex 13.5672 26.8036 32.3658 
endloop
endfacet
facet normal 0.98088 0 -0.194615 
outer loop
vertex 13.6171 10.1838 70.3789 
vertex 13.5672 10.1838 70.1275 
vertex 13.6171 25.8317 70.3789 
endloop
endfacet
facet normal 0.98088 0 -0.194615 
outer loop
vertex 13.5672 10.1838 70.1275 
vertex 13.5672 26.0831 70.1275 
vertex 13.6171 25.8317 70.3789 
endloop
endfacet
facet normal 0.889131 0 -0.457652 
outer loop
vertex 13.6171 10.1838 70.3789 
vertex 13.6171 0.941079 70.3789 
vertex 13.5082 1.15257 70.1674 
endloop
endfacet
facet normal 0.889131 0 0.457652 
outer loop
vertex 13.6171 0.941079 41.5989 
vertex 13.6171 10.4239 41.5989 
vertex 13.5082 1.15257 41.8104 
endloop
endfacet
facet normal 0.98088 -0 0.194615 
outer loop
vertex 13.6171 26.5522 41.5989 
vertex 13.5672 26.8036 41.8503 
vertex 13.6171 10.4239 41.5989 
endloop
endfacet
facet normal 0.980879 -4.53249e-008 0.194618 
outer loop
vertex 13.5672 26.8036 41.8503 
vertex 13.5672 10.4239 41.8503 
vertex 13.6171 10.4239 41.5989 
endloop
endfacet
facet normal 0.98088 -0.194615 -4.02417e-009 
outer loop
vertex 13.5672 -12.2877 32.3658 
vertex 13.6171 -12.0362 32.6172 
vertex 13.6171 -12.0362 78.7383 
endloop
endfacet
facet normal 0.980879 -0.194617 7.96163e-009 
outer loop
vertex 13.5672 -12.2877 32.3658 
vertex 13.6171 -12.0362 78.7383 
vertex 13.5672 -12.2877 78.9897 
endloop
endfacet
facet normal 0.980879 0.194616 -4.44054e-008 
outer loop
vertex 13.6171 25.8317 70.3789 
vertex 13.5672 26.0831 70.1275 
vertex 13.6171 25.8317 78.7383 
endloop
endfacet
facet normal 0.98088 0.194614 -1.05554e-007 
outer loop
vertex 13.5672 26.0831 70.1275 
vertex 13.5672 26.0831 78.9897 
vertex 13.6171 25.8317 78.7383 
endloop
endfacet
facet normal 0.848713 -0.528854 -1.07137e-008 
outer loop
vertex 13.4264 -12.5136 32.1399 
vertex 13.5672 -12.2877 32.3658 
vertex 13.4264 -12.5136 79.2157 
endloop
endfacet
facet normal 0.848716 -0.52885 2.16348e-008 
outer loop
vertex 13.5672 -12.2877 32.3658 
vertex 13.5672 -12.2877 78.9897 
vertex 13.4264 -12.5136 79.2157 
endloop
endfacet
facet normal 0.848712 0.528856 -3.24898e-007 
outer loop
vertex 13.5672 26.0831 70.1275 
vertex 13.4264 26.3091 69.9016 
vertex 13.4264 26.3091 79.2157 
endloop
endfacet
facet normal 0.848716 0.528849 -9.13313e-008 
outer loop
vertex 13.5672 26.0831 70.1275 
vertex 13.4264 26.3091 79.2157 
vertex 13.5672 26.0831 78.9897 
endloop
endfacet
facet normal 0.659177 -0.751988 -1.51111e-008 
outer loop
vertex 13.208 -12.705 31.9484 
vertex 13.4264 -12.5136 32.1399 
vertex 13.208 -12.705 79.4071 
endloop
endfacet
facet normal 0.659177 -0.751988 -1.5234e-008 
outer loop
vertex 13.4264 -12.5136 32.1399 
vertex 13.4264 -12.5136 79.2157 
vertex 13.208 -12.705 79.4071 
endloop
endfacet
facet normal 0.659173 0.751991 -4.6198e-007 
outer loop
vertex 13.4264 26.3091 69.9016 
vertex 13.208 26.5005 69.7101 
vertex 13.4264 26.3091 79.2157 
endloop
endfacet
facet normal 0.659175 0.75199 -5.08569e-007 
outer loop
vertex 13.208 26.5005 69.7101 
vertex 13.208 26.5005 79.4071 
vertex 13.4264 26.3091 79.2157 
endloop
endfacet
facet normal 0.463604 -0.886042 -1.78049e-008 
outer loop
vertex 12.9254 -12.8529 31.8005 
vertex 13.208 -12.705 31.9484 
vertex 13.208 -12.705 79.4071 
endloop
endfacet
facet normal 0.463602 -0.886044 0 
outer loop
vertex 12.9254 -12.8529 31.8005 
vertex 13.208 -12.705 79.4071 
vertex 12.9254 -12.8529 79.555 
endloop
endfacet
facet normal 0.463614 0.886037 -5.68435e-007 
outer loop
vertex 13.208 26.5005 69.7101 
vertex 12.9254 26.6484 69.5623 
vertex 13.208 26.5005 79.4071 
endloop
endfacet
facet normal 0.463601 0.886044 -8.84893e-008 
outer loop
vertex 12.9254 26.6484 69.5623 
vertex 12.9254 26.6484 79.555 
vertex 13.208 26.5005 79.4071 
endloop
endfacet
facet normal 0.274796 -0.961503 0 
outer loop
vertex 12.5918 -12.9482 31.7052 
vertex 12.9254 -12.8529 31.8005 
vertex 12.9254 -12.8529 79.555 
endloop
endfacet
facet normal 0.274793 -0.961503 1.91252e-008 
outer loop
vertex 12.5918 -12.9482 31.7052 
vertex 12.9254 -12.8529 79.555 
vertex 12.5918 -12.9482 79.6503 
endloop
endfacet
facet normal 0.274799 0.961502 0 
outer loop
vertex 12.9254 26.6484 69.5623 
vertex 12.5918 26.7437 69.4669 
vertex 12.5918 26.7437 79.6503 
endloop
endfacet
facet normal 0.274797 0.961502 -5.24517e-008 
outer loop
vertex 12.9254 26.6484 69.5623 
vertex 12.5918 26.7437 79.6503 
vertex 12.9254 26.6484 79.555 
endloop
endfacet
facet normal 0.0906252 -0.995885 -1.97812e-008 
outer loop
vertex 12.2205 -12.982 31.6714 
vertex 12.5918 -12.9482 31.7052 
vertex 12.2205 -12.982 79.6841 
endloop
endfacet
facet normal 0.0906303 -0.995885 1.98091e-008 
outer loop
vertex 12.5918 -12.9482 31.7052 
vertex 12.5918 -12.9482 79.6503 
vertex 12.2205 -12.982 79.6841 
endloop
endfacet
facet normal 0.0906252 0.995885 0 
outer loop
vertex 12.5918 26.7437 69.4669 
vertex 12.2205 26.7775 69.4331 
vertex 12.5918 26.7437 79.6503 
endloop
endfacet
facet normal 0.0906252 0.995885 0 
outer loop
vertex 12.2205 26.7775 69.4331 
vertex 12.2205 26.7775 79.6841 
vertex 12.5918 26.7437 79.6503 
endloop
endfacet
facet normal 0 1 0 
outer loop
vertex 11.6171 24.9762 52.0097 
vertex 11.6171 24.9762 61.8022 
vertex 12.2205 24.9762 52.0097 
endloop
endfacet
facet normal 0 1 -0 
outer loop
vertex 11.6171 24.9762 61.8022 
vertex 12.2205 24.9762 61.8022 
vertex 12.2205 24.9762 52.0097 
endloop
endfacet
facet normal 0 0 1 
outer loop
vertex 11.6171 24.9762 61.8022 
vertex 11.6171 1.88689 61.8022 
vertex 12.2205 24.9762 61.8022 
endloop
endfacet
facet normal 0 0 1 
outer loop
vertex 11.6171 1.88689 61.8022 
vertex 12.2205 1.88689 61.8022 
vertex 12.2205 24.9762 61.8022 
endloop
endfacet
facet normal 0 0 -1 
outer loop
vertex 11.6171 1.88689 69.4331 
vertex 11.6171 26.7775 69.4331 
vertex 12.2205 1.88689 69.4331 
endloop
endfacet
facet normal 0 0 -1 
outer loop
vertex 11.6171 26.7775 69.4331 
vertex 12.2205 26.7775 69.4331 
vertex 12.2205 1.88689 69.4331 
endloop
endfacet
facet normal 0 0 1 
outer loop
vertex 11.6171 26.7775 79.6841 
vertex 11.6171 -12.982 79.6841 
vertex 12.2205 26.7775 79.6841 
endloop
endfacet
facet normal 0 0 1 
outer loop
vertex 11.6171 -12.982 79.6841 
vertex 12.2205 -12.982 79.6841 
vertex 12.2205 26.7775 79.6841 
endloop
endfacet
facet normal 0 1 0 
outer loop
vertex 11.6171 26.7775 69.4331 
vertex 11.6171 26.7775 79.6841 
vertex 12.2205 26.7775 69.4331 
endloop
endfacet
facet normal 0 1 -0 
outer loop
vertex 11.6171 26.7775 79.6841 
vertex 12.2205 26.7775 79.6841 
vertex 12.2205 26.7775 69.4331 
endloop
endfacet
facet normal 0 1 0 
outer loop
vertex 11.6171 1.88689 61.8022 
vertex 11.6171 1.88689 69.4331 
vertex 12.2205 1.88689 61.8022 
endloop
endfacet
facet normal 0 1 -0 
outer loop
vertex 11.6171 1.88689 69.4331 
vertex 12.2205 1.88689 69.4331 
vertex 12.2205 1.88689 61.8022 
endloop
endfacet
facet normal 0 0 -1 
outer loop
vertex 11.6171 1.88689 52.0097 
vertex 11.6171 24.9762 52.0097 
vertex 12.2205 1.88689 52.0097 
endloop
endfacet
facet normal 0 0 -1 
outer loop
vertex 11.6171 24.9762 52.0097 
vertex 12.2205 24.9762 52.0097 
vertex 12.2205 1.88689 52.0097 
endloop
endfacet
facet normal 0 0 -1 
outer loop
vertex 11.6171 -12.982 31.6714 
vertex 11.6171 27.498 31.6714 
vertex 12.2205 -12.982 31.6714 
endloop
endfacet
facet normal 0 0 -1 
outer loop
vertex 11.6171 27.498 31.6714 
vertex 12.2205 27.498 31.6714 
vertex 12.2205 -12.982 31.6714 
endloop
endfacet
facet normal 0 1.48947e-007 1 
outer loop
vertex 11.6171 27.498 42.5447 
vertex 11.6171 1.88689 42.5447 
vertex 12.2205 27.498 42.5447 
endloop
endfacet
facet normal 0 1.48947e-007 1 
outer loop
vertex 11.6171 1.88689 42.5447 
vertex 12.2205 1.88689 42.5447 
vertex 12.2205 27.498 42.5447 
endloop
endfacet
facet normal 0 1 0 
outer loop
vertex 11.6171 27.498 31.6714 
vertex 11.6171 27.498 42.5447 
vertex 12.2205 27.498 31.6714 
endloop
endfacet
facet normal 0 1 -0 
outer loop
vertex 11.6171 27.498 42.5447 
vertex 12.2205 27.498 42.5447 
vertex 12.2205 27.498 31.6714 
endloop
endfacet
facet normal 0 1 0 
outer loop
vertex 11.6171 1.88689 42.5447 
vertex 11.6171 1.88689 52.0097 
vertex 12.2205 1.88689 42.5447 
endloop
endfacet
facet normal 0 1 -0 
outer loop
vertex 11.6171 1.88689 52.0097 
vertex 12.2205 1.88689 52.0097 
vertex 12.2205 1.88689 42.5447 
endloop
endfacet
facet normal -0 -1 -1.9863e-008 
outer loop
vertex 11.6171 -12.982 79.6841 
vertex 11.6171 -12.982 31.6714 
vertex 12.2205 -12.982 79.6841 
endloop
endfacet
facet normal 0 -1 -1.9863e-008 
outer loop
vertex 11.6171 -12.982 31.6714 
vertex 12.2205 -12.982 31.6714 
vertex 12.2205 -12.982 79.6841 
endloop
endfacet
facet normal -1 0 0 
outer loop
vertex 11.6171 1.88689 42.5447 
vertex 11.6171 27.498 42.5447 
vertex 11.6171 27.498 31.6714 
endloop
endfacet
facet normal -1 0 0 
outer loop
vertex 11.6171 1.88689 42.5447 
vertex 11.6171 27.498 31.6714 
vertex 11.6171 -12.982 31.6714 
endloop
endfacet
facet normal -1 0 -0 
outer loop
vertex 11.6171 1.88689 42.5447 
vertex 11.6171 -12.982 31.6714 
vertex 11.6171 1.88689 69.4331 
endloop
endfacet
facet normal 0 -0 0 
outer loop
vertex 11.6171 1.88689 42.5447 
vertex 11.6171 1.88689 69.4331 
vertex 11.6171 1.88689 61.8022 
endloop
endfacet
facet normal 0 -0 0 
outer loop
vertex 11.6171 1.88689 42.5447 
vertex 11.6171 1.88689 61.8022 
vertex 11.6171 1.88689 52.0097 
endloop
endfacet
facet normal -1 -0 0 
outer loop
vertex 11.6171 1.88689 52.0097 
vertex 11.6171 1.88689 61.8022 
vertex 11.6171 24.9762 61.8022 
endloop
endfacet
facet normal -1 0 0 
outer loop
vertex 11.6171 1.88689 52.0097 
vertex 11.6171 24.9762 61.8022 
vertex 11.6171 24.9762 52.0097 
endloop
endfacet
facet normal -1 0 0 
outer loop
vertex 11.6171 1.88689 69.4331 
vertex 11.6171 -12.982 31.6714 
vertex 11.6171 -12.982 79.6841 
endloop
endfacet
facet normal -1 -0 0 
outer loop
vertex 11.6171 1.88689 69.4331 
vertex 11.6171 -12.982 79.6841 
vertex 11.6171 26.7775 79.6841 
endloop
endfacet
facet normal -1 0 0 
outer loop
vertex 11.6171 1.88689 69.4331 
vertex 11.6171 26.7775 79.6841 
vertex 11.6171 26.7775 69.4331 
endloop
endfacet
endsolid E
