solid Form5
facet normal -1.58828e-007 -9.37084e-009 -1 
outer loop
vertex -14.7365 -29.039 10.7236 
vertex -4.52705 1.46057 10.7236 
vertex 15.2857 -29.039 10.7236 
endloop
endfacet
facet normal -1.05331e-007 2.53816e-008 -1 
outer loop
vertex 4.52705 1.46057 10.7236 
vertex 15.2857 -29.039 10.7236 
vertex -4.52705 1.46057 10.7236 
endloop
endfacet
facet normal -1.77284e-007 -0 -1 
outer loop
vertex 15.2857 -29.039 10.7236 
vertex 4.52705 1.46057 10.7236 
vertex 15.2857 80.961 10.7236 
endloop
endfacet
facet normal -1.77284e-007 0 -1 
outer loop
vertex 4.52705 3.4549 10.7236 
vertex 15.2857 80.961 10.7236 
vertex 4.52705 1.46057 10.7236 
endloop
endfacet
facet normal -1.05331e-007 -9.98797e-009 -1 
outer loop
vertex 15.2857 80.961 10.7236 
vertex 4.52705 3.4549 10.7236 
vertex -4.52705 3.4549 10.7236 
endloop
endfacet
facet normal -1.58828e-007 3.68754e-009 -1 
outer loop
vertex -14.7365 80.961 10.7236 
vertex 15.2857 80.961 10.7236 
vertex -4.52705 3.4549 10.7236 
endloop
endfacet
facet normal -1.86823e-007 0 -1 
outer loop
vertex -14.7365 80.961 10.7236 
vertex -4.52705 3.4549 10.7236 
vertex -4.52705 1.46057 10.7236 
endloop
endfacet
facet normal -1.86823e-007 4.85913e-015 -1 
outer loop
vertex -14.7365 80.961 10.7236 
vertex -4.52705 1.46057 10.7236 
vertex -14.7365 -29.039 10.7236 
endloop
endfacet
facet normal -0 1 0 
outer loop
vertex 29.9687 80.961 11.9144 
vertex 30.0219 80.961 9.89616 
vertex 18.2608 80.961 9.91336 
endloop
endfacet
facet normal -0 1 0 
outer loop
vertex 29.9687 80.961 11.9144 
vertex 18.2608 80.961 9.91336 
vertex 15.2857 80.961 10.7236 
endloop
endfacet
facet normal -0 1 0 
outer loop
vertex 29.9687 80.961 11.9144 
vertex 15.2857 80.961 10.7236 
vertex -14.7365 80.961 10.7236 
endloop
endfacet
facet normal 0 1 0 
outer loop
vertex 29.9687 80.961 11.9144 
vertex -14.7365 80.961 10.7236 
vertex -29.2159 80.961 12.0192 
endloop
endfacet
facet normal 0 1 0 
outer loop
vertex 29.9687 80.961 11.9144 
vertex -29.2159 80.961 12.0192 
vertex 25.2078 80.961 13.7225 
endloop
endfacet
facet normal -0 1 0 
outer loop
vertex 30.0219 80.961 9.89616 
vertex 32.0078 80.961 7.72563 
vertex 21.9196 80.961 7.73516 
endloop
endfacet
facet normal 0 1 0 
outer loop
vertex 30.0219 80.961 9.89616 
vertex 21.9196 80.961 7.73516 
vertex 18.2608 80.961 9.91336 
endloop
endfacet
facet normal 0 1 0 
outer loop
vertex -19.779 80.961 13.7236 
vertex 20.2839 80.961 13.7236 
vertex 25.2078 80.961 13.7225 
endloop
endfacet
facet normal 0 1 0 
outer loop
vertex -19.779 80.961 13.7236 
vertex 25.2078 80.961 13.7225 
vertex -29.2159 80.961 12.0192 
endloop
endfacet
facet normal 0 1 0 
outer loop
vertex -19.779 80.961 13.7236 
vertex -29.2159 80.961 12.0192 
vertex -24.7 80.961 13.7339 
endloop
endfacet
facet normal 0 1 0 
outer loop
vertex -21.3642 80.961 7.62415 
vertex -31.5768 80.961 7.63428 
vertex -17.6585 80.961 9.91573 
endloop
endfacet
facet normal 0 1 0 
outer loop
vertex -29.272 80.961 10.0064 
vertex -17.6585 80.961 9.91573 
vertex -31.5768 80.961 7.63428 
endloop
endfacet
facet normal 0 1 0 
outer loop
vertex -17.6585 80.961 9.91573 
vertex -29.272 80.961 10.0064 
vertex -14.7365 80.961 10.7236 
endloop
endfacet
facet normal 0 1 0 
outer loop
vertex -29.2159 80.961 12.0192 
vertex -14.7365 80.961 10.7236 
vertex -29.272 80.961 10.0064 
endloop
endfacet
facet normal 1.47084e-007 0 1 
outer loop
vertex 20.2839 -29.039 13.7236 
vertex 20.2839 80.961 13.7236 
vertex 13.8 46.6985 13.7236 
endloop
endfacet
facet normal 1.47084e-007 -0 1 
outer loop
vertex 20.2839 -29.039 13.7236 
vertex 13.8 46.6985 13.7236 
vertex 13.8 3.69852 13.7236 
endloop
endfacet
facet normal 1.03074e-007 -8.71655e-009 1 
outer loop
vertex 20.2839 -29.039 13.7236 
vertex 13.8 3.69852 13.7236 
vertex 4.52705 3.4549 13.7236 
endloop
endfacet
facet normal 1.21049e-007 -0 1 
outer loop
vertex 20.2839 -29.039 13.7236 
vertex 4.52705 3.4549 13.7236 
vertex 4.52705 1.46057 13.7236 
endloop
endfacet
facet normal 2.10661e-007 4.62958e-008 1 
outer loop
vertex 20.2839 -29.039 13.7236 
vertex 4.52705 1.46057 13.7236 
vertex -4.52705 1.46057 13.7236 
endloop
endfacet
facet normal 9.0409e-008 -5.15275e-008 1 
outer loop
vertex 20.2839 -29.039 13.7236 
vertex -4.52705 1.46057 13.7236 
vertex -13.8 3.69852 13.7236 
endloop
endfacet
facet normal 1.42827e-007 3.04568e-009 1 
outer loop
vertex 20.2839 -29.039 13.7236 
vertex -13.8 3.69852 13.7236 
vertex -19.779 -29.039 13.7236 
endloop
endfacet
facet normal 1.59503e-007 -2.7657e-015 1 
outer loop
vertex -19.779 -29.039 13.7236 
vertex -13.8 3.69852 13.7236 
vertex -19.779 80.961 13.7236 
endloop
endfacet
facet normal 1.59503e-007 -0 1 
outer loop
vertex -13.8 46.6985 13.7236 
vertex -19.779 80.961 13.7236 
vertex -13.8 3.69852 13.7236 
endloop
endfacet
facet normal 1.42827e-007 -2.91012e-009 1 
outer loop
vertex -19.779 80.961 13.7236 
vertex -13.8 46.6985 13.7236 
vertex 20.2839 80.961 13.7236 
endloop
endfacet
facet normal 1.38214e-007 1.6787e-009 1 
outer loop
vertex 13.8 46.6985 13.7236 
vertex 20.2839 80.961 13.7236 
vertex -13.8 46.6985 13.7236 
endloop
endfacet
facet normal 1.02845e-007 -0 1 
outer loop
vertex -4.52705 3.4549 13.7236 
vertex -13.8 3.69852 13.7236 
vertex -4.52705 1.46057 13.7236 
endloop
endfacet
facet normal 0 -1 0 
outer loop
vertex 20.2839 -29.039 13.7236 
vertex -19.779 -29.039 13.7236 
vertex 25.2078 -29.039 13.7225 
endloop
endfacet
facet normal 0 -1 -0 
outer loop
vertex -29.2159 -29.039 12.0192 
vertex 25.2078 -29.039 13.7225 
vertex -19.779 -29.039 13.7236 
endloop
endfacet
facet normal 0 -1 0 
outer loop
vertex 25.2078 -29.039 13.7225 
vertex -29.2159 -29.039 12.0192 
vertex 29.9687 -29.039 11.9144 
endloop
endfacet
facet normal 0 -1 0 
outer loop
vertex -14.7365 -29.039 10.7236 
vertex 29.9687 -29.039 11.9144 
vertex -29.2159 -29.039 12.0192 
endloop
endfacet
facet normal 0 -1 0 
outer loop
vertex 29.9687 -29.039 11.9144 
vertex -14.7365 -29.039 10.7236 
vertex 15.2857 -29.039 10.7236 
endloop
endfacet
facet normal -0 -1 0 
outer loop
vertex -29.272 -29.039 10.0064 
vertex -31.5768 -29.039 7.63428 
vertex -17.6585 -29.039 9.91573 
endloop
endfacet
facet normal 0 -1 0 
outer loop
vertex -29.272 -29.039 10.0064 
vertex -17.6585 -29.039 9.91573 
vertex -14.7365 -29.039 10.7236 
endloop
endfacet
facet normal 0 -1 -0 
outer loop
vertex -29.272 -29.039 10.0064 
vertex -14.7365 -29.039 10.7236 
vertex -29.2159 -29.039 12.0192 
endloop
endfacet
facet normal -0 -1 0 
outer loop
vertex 18.2608 -29.039 9.91336 
vertex 21.9196 -29.039 7.73516 
vertex 30.0219 -29.039 9.89616 
endloop
endfacet
facet normal 0 -1 -0 
outer loop
vertex 18.2608 -29.039 9.91336 
vertex 30.0219 -29.039 9.89616 
vertex 29.9687 -29.039 11.9144 
endloop
endfacet
facet normal 0 -1 0 
outer loop
vertex 18.2608 -29.039 9.91336 
vertex 29.9687 -29.039 11.9144 
vertex 15.2857 -29.039 10.7236 
endloop
endfacet
facet normal 0 -1 0 
outer loop
vertex 30.0219 -29.039 9.89616 
vertex 21.9196 -29.039 7.73516 
vertex 32.0078 -29.039 7.72563 
endloop
endfacet
facet normal 0 -1 0 
outer loop
vertex -17.6585 -29.039 9.91573 
vertex -31.5768 -29.039 7.63428 
vertex -21.3642 -29.039 7.62415 
endloop
endfacet
facet normal 0 -1 -0 
outer loop
vertex -29.2159 -29.039 12.0192 
vertex -19.779 -29.039 13.7236 
vertex -24.7 -29.039 13.7339 
endloop
endfacet
facet normal -0.262762 -0 -0.964861 
outer loop
vertex 18.2608 -29.039 9.91336 
vertex 15.2857 -29.039 10.7236 
vertex 18.2608 80.961 9.91336 
endloop
endfacet
facet normal -0.262762 0 -0.964861 
outer loop
vertex 15.2857 -29.039 10.7236 
vertex 15.2857 80.961 10.7236 
vertex 18.2608 80.961 9.91336 
endloop
endfacet
facet normal 0.266471 -4.62049e-009 -0.963843 
outer loop
vertex -17.6585 80.961 9.91573 
vertex -14.7365 80.961 10.7236 
vertex -17.6585 -29.039 9.91573 
endloop
endfacet
facet normal 0.266471 -6.93073e-009 -0.963843 
outer loop
vertex -14.7365 80.961 10.7236 
vertex -14.7365 -29.039 10.7236 
vertex -17.6585 -29.039 9.91573 
endloop
endfacet
facet normal -0.000944906 0 -1 
outer loop
vertex 32.0078 80.961 7.72563 
vertex 32.0078 -29.039 7.72563 
vertex 21.9196 80.961 7.73516 
endloop
endfacet
facet normal -0.000944906 -0 -1 
outer loop
vertex 32.0078 -29.039 7.72563 
vertex 21.9196 -29.039 7.73516 
vertex 21.9196 80.961 7.73516 
endloop
endfacet
facet normal -0.511549 -0 -0.859254 
outer loop
vertex 21.9196 -29.039 7.73516 
vertex 18.2608 -29.039 9.91336 
vertex 21.9196 80.961 7.73516 
endloop
endfacet
facet normal -0.511549 0 -0.859254 
outer loop
vertex 18.2608 -29.039 9.91336 
vertex 18.2608 80.961 9.91336 
vertex 21.9196 80.961 7.73516 
endloop
endfacet
facet normal 0.737779 0 0.675042 
outer loop
vertex 30.0219 -29.039 9.89616 
vertex 32.0078 -29.039 7.72563 
vertex 30.0219 80.961 9.89616 
endloop
endfacet
facet normal 0.737779 0 0.675042 
outer loop
vertex 32.0078 -29.039 7.72563 
vertex 32.0078 80.961 7.72563 
vertex 30.0219 80.961 9.89616 
endloop
endfacet
facet normal -0.000992274 3.44111e-011 -1 
outer loop
vertex -31.5768 -29.039 7.63428 
vertex -31.5768 80.961 7.63428 
vertex -21.3642 -29.039 7.62415 
endloop
endfacet
facet normal -0.000992274 3.44111e-011 -1 
outer loop
vertex -31.5768 80.961 7.63428 
vertex -21.3642 80.961 7.62415 
vertex -21.3642 -29.039 7.62415 
endloop
endfacet
facet normal 0.525955 -1.82396e-008 -0.850512 
outer loop
vertex -21.3642 80.961 7.62415 
vertex -17.6585 80.961 9.91573 
vertex -21.3642 -29.039 7.62415 
endloop
endfacet
facet normal 0.525955 -9.11981e-009 -0.850513 
outer loop
vertex -17.6585 80.961 9.91573 
vertex -17.6585 -29.039 9.91573 
vertex -21.3642 -29.039 7.62415 
endloop
endfacet
facet normal -0.717212 1.24361e-008 0.696855 
outer loop
vertex -29.272 80.961 10.0064 
vertex -31.5768 80.961 7.63428 
vertex -29.272 -29.039 10.0064 
endloop
endfacet
facet normal -0.717212 2.48722e-008 0.696855 
outer loop
vertex -31.5768 80.961 7.63428 
vertex -31.5768 -29.039 7.63428 
vertex -29.272 -29.039 10.0064 
endloop
endfacet
facet normal 0.00022583 -0 1 
outer loop
vertex 25.2078 80.961 13.7225 
vertex 20.2839 80.961 13.7236 
vertex 25.2078 -29.039 13.7225 
endloop
endfacet
facet normal 0.00022583 0 1 
outer loop
vertex 20.2839 80.961 13.7236 
vertex 20.2839 -29.039 13.7236 
vertex 25.2078 -29.039 13.7225 
endloop
endfacet
facet normal 0.355034 -0 0.934853 
outer loop
vertex 29.9687 80.961 11.9144 
vertex 25.2078 80.961 13.7225 
vertex 29.9687 -29.039 11.9144 
endloop
endfacet
facet normal 0.355034 0 0.934853 
outer loop
vertex 25.2078 80.961 13.7225 
vertex 25.2078 -29.039 13.7225 
vertex 29.9687 -29.039 11.9144 
endloop
endfacet
facet normal 0.999654 0 0.0263118 
outer loop
vertex 29.9687 -29.039 11.9144 
vertex 30.0219 -29.039 9.89616 
vertex 29.9687 80.961 11.9144 
endloop
endfacet
facet normal 0.999654 0 0.0263118 
outer loop
vertex 30.0219 -29.039 9.89616 
vertex 30.0219 80.961 9.89616 
vertex 29.9687 80.961 11.9144 
endloop
endfacet
facet normal 0.00208876 -7.24362e-011 0.999998 
outer loop
vertex -24.7 -29.039 13.7339 
vertex -19.779 -29.039 13.7236 
vertex -24.7 80.961 13.7339 
endloop
endfacet
facet normal 0.00208876 -3.62181e-011 0.999998 
outer loop
vertex -19.779 -29.039 13.7236 
vertex -19.779 80.961 13.7236 
vertex -24.7 80.961 13.7339 
endloop
endfacet
facet normal -0.354961 6.15487e-009 0.934881 
outer loop
vertex -29.2159 -29.039 12.0192 
vertex -24.7 -29.039 13.7339 
vertex -29.2159 80.961 12.0192 
endloop
endfacet
facet normal -0.354961 1.23097e-008 0.934881 
outer loop
vertex -24.7 -29.039 13.7339 
vertex -24.7 80.961 13.7339 
vertex -29.2159 80.961 12.0192 
endloop
endfacet
facet normal -0.999611 1.73328e-008 0.0278845 
outer loop
vertex -29.2159 80.961 12.0192 
vertex -29.272 80.961 10.0064 
vertex -29.2159 -29.039 12.0192 
endloop
endfacet
facet normal -0.999611 1.73328e-008 0.0278845 
outer loop
vertex -29.272 80.961 10.0064 
vertex -29.272 -29.039 10.0064 
vertex -29.2159 -29.039 12.0192 
endloop
endfacet
facet normal 1 0 0 
outer loop
vertex -4.52705 3.4549 13.7236 
vertex -4.52705 1.46057 13.7236 
vertex -4.52705 1.46057 10.7236 
endloop
endfacet
facet normal 1 0 -0 
outer loop
vertex -4.52705 3.4549 13.7236 
vertex -4.52705 1.46057 10.7236 
vertex -4.52705 3.4549 10.7236 
endloop
endfacet
facet normal 1 0 -0 
outer loop
vertex -4.52705 3.4549 13.7236 
vertex -4.52705 3.4549 10.7236 
vertex -4.52705 3.4549 12.2953 
endloop
endfacet
facet normal -1.00451e-013 1 -4.76837e-007 
outer loop
vertex -4.52705 1.46057 13.7236 
vertex 4.52705 1.46057 13.7236 
vertex -4.52705 1.46057 10.7236 
endloop
endfacet
facet normal -5.02256e-014 1 -4.76837e-007 
outer loop
vertex 4.52705 1.46057 13.7236 
vertex 4.52705 1.46057 10.7236 
vertex -4.52705 1.46057 10.7236 
endloop
endfacet
facet normal -1 0 0 
outer loop
vertex 4.52705 1.46057 13.7236 
vertex 4.52705 3.4549 13.7236 
vertex 4.52705 3.4549 12.2953 
endloop
endfacet
facet normal -1 0 0 
outer loop
vertex 4.52705 1.46057 13.7236 
vertex 4.52705 3.4549 12.2953 
vertex 4.52705 3.4549 10.7236 
endloop
endfacet
facet normal -1 0 0 
outer loop
vertex 4.52705 1.46057 13.7236 
vertex 4.52705 3.4549 10.7236 
vertex 4.52705 1.46057 10.7236 
endloop
endfacet
facet normal -0.0262636 0.999655 0 
outer loop
vertex 4.52705 3.4549 13.7236 
vertex 13.8 3.69852 13.7236 
vertex 4.52705 3.4549 12.2953 
endloop
endfacet
facet normal -0.0262636 0.999655 0 
outer loop
vertex 13.8 3.69852 13.7236 
vertex 13.8 3.69852 12.3169 
vertex 4.52705 3.4549 12.2953 
endloop
endfacet
facet normal -1 0 0 
outer loop
vertex 13.8 3.69852 13.7236 
vertex 13.8 46.6985 13.7236 
vertex 13.8 3.69852 12.3169 
endloop
endfacet
facet normal -1 0 0 
outer loop
vertex 13.8 46.6985 13.7236 
vertex 13.8 46.6985 12.3169 
vertex 13.8 3.69852 12.3169 
endloop
endfacet
facet normal 0 -1 0 
outer loop
vertex 13.8 46.6985 13.7236 
vertex -13.8 46.6985 13.7236 
vertex 13.8 46.6985 12.3169 
endloop
endfacet
facet normal 0 -1 0 
outer loop
vertex -13.8 46.6985 13.7236 
vertex -13.8 46.6985 12.3169 
vertex 13.8 46.6985 12.3169 
endloop
endfacet
facet normal 1 0 -0 
outer loop
vertex -13.8 46.6985 13.7236 
vertex -13.8 3.69852 13.7236 
vertex -13.8 46.6985 12.3169 
endloop
endfacet
facet normal 1 0 0 
outer loop
vertex -13.8 3.69852 13.7236 
vertex -13.8 3.69852 12.3169 
vertex -13.8 46.6985 12.3169 
endloop
endfacet
facet normal 0 0 1 
outer loop
vertex -13.8 46.6985 12.3169 
vertex -13.8 3.69852 12.3169 
vertex 13.8 46.6985 12.3169 
endloop
endfacet
facet normal 0 0 1 
outer loop
vertex -13.8 3.69852 12.3169 
vertex 13.8 3.69852 12.3169 
vertex 13.8 46.6985 12.3169 
endloop
endfacet
facet normal 0 -0.0883173 0.996092 
outer loop
vertex -13.8 3.69852 12.3169 
vertex -4.52705 3.4549 12.2953 
vertex 4.52705 3.4549 12.2953 
endloop
endfacet
facet normal 0 -0.0883173 0.996092 
outer loop
vertex -13.8 3.69852 12.3169 
vertex 4.52705 3.4549 12.2953 
vertex 13.8 3.69852 12.3169 
endloop
endfacet
facet normal 7.98911e-014 -1 7.58479e-007 
outer loop
vertex -4.52705 3.4549 10.7236 
vertex 4.52705 3.4549 10.7236 
vertex -4.52705 3.4549 12.2953 
endloop
endfacet
facet normal 0 -1 7.58479e-007 
outer loop
vertex 4.52705 3.4549 10.7236 
vertex 4.52705 3.4549 12.2953 
vertex -4.52705 3.4549 12.2953 
endloop
endfacet
facet normal 0.0262636 0.999655 -0 
outer loop
vertex -13.8 3.69852 13.7236 
vertex -4.52705 3.4549 13.7236 
vertex -13.8 3.69852 12.3169 
endloop
endfacet
facet normal 0.0262636 0.999655 0 
outer loop
vertex -4.52705 3.4549 13.7236 
vertex -4.52705 3.4549 12.2953 
vertex -13.8 3.69852 12.3169 
endloop
endfacet
endsolid Form5
